{"attributes":{"description":"","hits":0,"kibanaSavedObjectMeta":{"searchSourceJSON":"{\"query\":{\"query\":\"\",\"language\":\"kuery\"},\"filter\":[]}"},"optionsJSON":"{\"useMargins\":true,\"syncColors\":true,\"hidePanelTitles\":false}","panelsJSON":"[{\"version\":\"7.17.3\",\"type\":\"lens\",\"gridData\":{\"x\":0,\"y\":0,\"w\":24,\"h\":23,\"i\":\"ab2013a6-0d14-4b47-a942-b6b9cabad076\"},\"panelIndex\":\"ab2013a6-0d14-4b47-a942-b6b9cabad076\",\"embeddableConfig\":{\"attributes\":{\"title\":\"\",\"visualizationType\":\"lnsDatatable\",\"type\":\"lens\",\"references\":[{\"type\":\"index-pattern\",\"id\":\"f198a310-1a67-11ee-8735-ed0b718f5f2e\",\"name\":\"indexpattern-datasource-current-indexpattern\"},{\"type\":\"index-pattern\",\"id\":\"f198a310-1a67-11ee-8735-ed0b718f5f2e\",\"name\":\"indexpattern-datasource-layer-ef94b170-edc1-40b0-8ccc-83a86e7722b6\"}],\"state\":{\"visualization\":{\"layerId\":\"ef94b170-edc1-40b0-8ccc-83a86e7722b6\",\"layerType\":\"data\",\"columns\":[{\"isTransposed\":false,\"columnId\":\"27aacd8a-aadd-4afd-8c48-1ce237d947f0\",\"alignment\":\"left\"},{\"isTransposed\":false,\"columnId\":\"fc78054b-bd9b-4ff8-93e5-19312646f9b4\"},{\"isTransposed\":false,\"columnId\":\"40fc8d14-93e2-4d9a-b488-f6ec8c3aeee9\"},{\"isTransposed\":false,\"columnId\":\"43378081-daef-4a86-a7ba-2d8178ca3c23\",\"colorMode\":\"cell\",\"palette\":{\"type\":\"palette\",\"name\":\"positive\",\"params\":{\"stops\":[{\"color\":\"#d6e9e4\",\"stop\":20},{\"color\":\"#aed3ca\",\"stop\":40},{\"color\":\"#85bdb1\",\"stop\":60},{\"color\":\"#5aa898\",\"stop\":80},{\"color\":\"#209280\",\"stop\":100}]}},\"summaryRow\":\"avg\"}],\"sorting\":{\"columnId\":\"43378081-daef-4a86-a7ba-2d8178ca3c23\",\"direction\":\"desc\"}},\"query\":{\"query\":\"\",\"language\":\"kuery\"},\"filters\":[],\"datasourceStates\":{\"indexpattern\":{\"layers\":{\"ef94b170-edc1-40b0-8ccc-83a86e7722b6\":{\"columns\":{\"27aacd8a-aadd-4afd-8c48-1ce237d947f0\":{\"label\":\"基金简称 \",\"dataType\":\"string\",\"operationType\":\"terms\",\"scale\":\"ordinal\",\"sourceField\":\"基金简称\",\"isBucketed\":true,\"params\":{\"size\":999,\"orderBy\":{\"type\":\"column\",\"columnId\":\"43378081-daef-4a86-a7ba-2d8178ca3c23\"},\"orderDirection\":\"desc\",\"otherBucket\":true,\"missingBucket\":false},\"customLabel\":true},\"fc78054b-bd9b-4ff8-93e5-19312646f9b4\":{\"label\":\"基金代码\",\"dataType\":\"string\",\"operationType\":\"terms\",\"scale\":\"ordinal\",\"sourceField\":\"基金代码\",\"isBucketed\":true,\"params\":{\"size\":3,\"orderBy\":{\"type\":\"column\",\"columnId\":\"43378081-daef-4a86-a7ba-2d8178ca3c23\"},\"orderDirection\":\"desc\",\"otherBucket\":true,\"missingBucket\":false},\"customLabel\":true},\"40fc8d14-93e2-4d9a-b488-f6ec8c3aeee9\":{\"label\":\"基金类型\",\"dataType\":\"string\",\"operationType\":\"terms\",\"scale\":\"ordinal\",\"sourceField\":\"基金类型\",\"isBucketed\":true,\"params\":{\"size\":5,\"orderBy\":{\"type\":\"column\",\"columnId\":\"43378081-daef-4a86-a7ba-2d8178ca3c23\"},\"orderDirection\":\"desc\",\"otherBucket\":true,\"missingBucket\":false},\"customLabel\":true},\"43378081-daef-4a86-a7ba-2d8178ca3c23\":{\"label\":\"资产规模(亿元) \",\"dataType\":\"number\",\"operationType\":\"sum\",\"sourceField\":\"资产规模(亿元)\",\"isBucketed\":false,\"scale\":\"ratio\",\"params\":{\"format\":{\"id\":\"number\",\"params\":{\"decimals\":2}}},\"customLabel\":true}},\"columnOrder\":[\"27aacd8a-aadd-4afd-8c48-1ce237d947f0\",\"fc78054b-bd9b-4ff8-93e5-19312646f9b4\",\"40fc8d14-93e2-4d9a-b488-f6ec8c3aeee9\",\"43378081-daef-4a86-a7ba-2d8178ca3c23\"],\"incompleteColumns\":{}}}}}}},\"enhancements\":{},\"hidePanelTitles\":false},\"title\":\"基本信息列表\"},{\"version\":\"7.17.3\",\"type\":\"lens\",\"gridData\":{\"x\":24,\"y\":0,\"w\":24,\"h\":23,\"i\":\"64ee9b86-2d21-480e-9f05-643e6ac2cae8\"},\"panelIndex\":\"64ee9b86-2d21-480e-9f05-643e6ac2cae8\",\"embeddableConfig\":{\"attributes\":{\"title\":\"\",\"visualizationType\":\"lnsDatatable\",\"type\":\"lens\",\"references\":[{\"type\":\"index-pattern\",\"id\":\"6b32f670-1b36-11ee-92df-9d60b72cab31\",\"name\":\"indexpattern-datasource-current-indexpattern\"},{\"type\":\"index-pattern\",\"id\":\"6b32f670-1b36-11ee-92df-9d60b72cab31\",\"name\":\"indexpattern-datasource-layer-bc952f3b-4943-46a9-a997-bef7945fc650\"}],\"state\":{\"visualization\":{\"columns\":[{\"isTransposed\":false,\"columnId\":\"a48a4991-d6d0-40a1-9935-617d76a13692\"},{\"isTransposed\":false,\"columnId\":\"53a24669-daf1-48c9-bb84-63dd54adde85\",\"colorMode\":\"none\"},{\"isTransposed\":false,\"columnId\":\"aef580d2-0632-4142-8d7f-5075f76656e5\"},{\"isTransposed\":false,\"columnId\":\"a6a612cb-f128-4e40-b2a4-c31ed7e0d11e\",\"colorMode\":\"cell\",\"palette\":{\"type\":\"palette\",\"name\":\"status\",\"params\":{\"stops\":[{\"color\":\"#209280\",\"stop\":0},{\"color\":\"#54b399\",\"stop\":20},{\"color\":\"#d6bf57\",\"stop\":40},{\"color\":\"#e7664c\",\"stop\":60},{\"color\":\"#cc5642\",\"stop\":80}],\"name\":\"status\",\"reverse\":false,\"rangeMin\":0,\"rangeMax\":80}}},{\"isTransposed\":false,\"columnId\":\"9e339578-73e2-4073-95cf-995da45cf78b\"},{\"isTransposed\":false,\"columnId\":\"0e96ce36-504d-4c0a-88e4-8e81ca348842\"}],\"layerId\":\"bc952f3b-4943-46a9-a997-bef7945fc650\",\"layerType\":\"data\"},\"query\":{\"query\":\"\",\"language\":\"kuery\"},\"filters\":[],\"datasourceStates\":{\"indexpattern\":{\"layers\":{\"bc952f3b-4943-46a9-a997-bef7945fc650\":{\"columns\":{\"a48a4991-d6d0-40a1-9935-617d76a13692\":{\"label\":\"基金简称 排名最前值\",\"dataType\":\"string\",\"operationType\":\"terms\",\"scale\":\"ordinal\",\"sourceField\":\"基金简称\",\"isBucketed\":true,\"params\":{\"size\":999,\"orderBy\":{\"type\":\"column\",\"columnId\":\"a6a612cb-f128-4e40-b2a4-c31ed7e0d11e\"},\"orderDirection\":\"asc\",\"otherBucket\":true,\"missingBucket\":false}},\"53a24669-daf1-48c9-bb84-63dd54adde85\":{\"label\":\"单位净值 的最大值\",\"dataType\":\"number\",\"operationType\":\"max\",\"sourceField\":\"单位净值\",\"isBucketed\":false,\"scale\":\"ratio\",\"params\":{\"format\":{\"id\":\"number\",\"params\":{\"decimals\":4}}}},\"aef580d2-0632-4142-8d7f-5075f76656e5\":{\"label\":\"样本数量 之和\",\"dataType\":\"number\",\"operationType\":\"sum\",\"sourceField\":\"样本数量\",\"isBucketed\":false,\"scale\":\"ratio\"},\"a6a612cb-f128-4e40-b2a4-c31ed7e0d11e\":{\"label\":\"标准差 的平均值\",\"dataType\":\"number\",\"operationType\":\"average\",\"sourceField\":\"标准差\",\"isBucketed\":false,\"scale\":\"ratio\"},\"9e339578-73e2-4073-95cf-995da45cf78b\":{\"label\":\"最大值 的最大值\",\"dataType\":\"number\",\"operationType\":\"max\",\"sourceField\":\"最大值\",\"isBucketed\":false,\"scale\":\"ratio\"},\"0e96ce36-504d-4c0a-88e4-8e81ca348842\":{\"label\":\"最小值 的最小值\",\"dataType\":\"number\",\"operationType\":\"min\",\"sourceField\":\"最小值\",\"isBucketed\":false,\"scale\":\"ratio\"}},\"columnOrder\":[\"a48a4991-d6d0-40a1-9935-617d76a13692\",\"aef580d2-0632-4142-8d7f-5075f76656e5\",\"9e339578-73e2-4073-95cf-995da45cf78b\",\"0e96ce36-504d-4c0a-88e4-8e81ca348842\",\"53a24669-daf1-48c9-bb84-63dd54adde85\",\"a6a612cb-f128-4e40-b2a4-c31ed7e0d11e\"],\"incompleteColumns\":{}}}}}}},\"hidePanelTitles\":false,\"enhancements\":{}},\"title\":\"换手率\"},{\"version\":\"7.17.3\",\"type\":\"visualization\",\"gridData\":{\"x\":24,\"y\":23,\"w\":24,\"h\":23,\"i\":\"3185dfe6-01fb-4566-b70a-a942f46e02cb\"},\"panelIndex\":\"3185dfe6-01fb-4566-b70a-a942f46e02cb\",\"embeddableConfig\":{\"savedVis\":{\"id\":\"\",\"title\":\"\",\"description\":\"\",\"type\":\"histogram\",\"params\":{\"addLegend\":true,\"addTimeMarker\":false,\"addTooltip\":true,\"categoryAxes\":[{\"id\":\"CategoryAxis-1\",\"labels\":{\"filter\":true,\"show\":true,\"truncate\":100},\"position\":\"bottom\",\"scale\":{\"type\":\"linear\"},\"show\":true,\"style\":{},\"title\":{},\"type\":\"category\"}],\"detailedTooltip\":true,\"grid\":{\"categoryLines\":true,\"valueAxis\":\"ValueAxis-1\"},\"labels\":{\"show\":true},\"legendPosition\":\"right\",\"maxLegendLines\":5,\"palette\":{\"type\":\"palette\",\"name\":\"default\"},\"radiusRatio\":0,\"seriesParams\":[{\"circlesRadius\":1,\"data\":{\"id\":\"1\",\"label\":\"资产规模(亿元)最大值\"},\"drawLinesBetweenPoints\":true,\"interpolate\":\"linear\",\"lineWidth\":2,\"mode\":\"stacked\",\"show\":true,\"showCircles\":true,\"type\":\"histogram\",\"valueAxis\":\"ValueAxis-1\"}],\"thresholdLine\":{\"color\":\"#E7664C\",\"show\":false,\"style\":\"full\",\"value\":10,\"width\":1},\"times\":[],\"truncateLegend\":true,\"type\":\"histogram\",\"valueAxes\":[{\"id\":\"ValueAxis-1\",\"labels\":{\"filter\":false,\"rotate\":0,\"show\":true,\"truncate\":100},\"name\":\"LeftAxis-1\",\"position\":\"left\",\"scale\":{\"mode\":\"normal\",\"type\":\"linear\"},\"show\":true,\"style\":{},\"title\":{\"text\":\"资产规模(亿元)最大值\"},\"type\":\"value\"}],\"orderBucketsBySum\":false},\"uiState\":{},\"data\":{\"aggs\":[{\"id\":\"1\",\"enabled\":true,\"type\":\"max\",\"params\":{\"field\":\"资产规模(亿元)\"},\"schema\":\"metric\"},{\"id\":\"2\",\"enabled\":true,\"type\":\"terms\",\"params\":{\"field\":\"基金简称\",\"orderBy\":\"1\",\"order\":\"desc\",\"size\":999,\"otherBucket\":false,\"otherBucketLabel\":\"其他\",\"missingBucket\":false,\"missingBucketLabel\":\"缺失\"},\"schema\":\"segment\"}],\"searchSource\":{\"index\":\"f198a310-1a67-11ee-8735-ed0b718f5f2e\",\"query\":{\"query\":\"\",\"language\":\"kuery\"},\"filter\":[]}}},\"hidePanelTitles\":false,\"enhancements\":{}},\"title\":\"重要属性排名\"},{\"version\":\"7.17.3\",\"type\":\"visualization\",\"gridData\":{\"x\":0,\"y\":23,\"w\":24,\"h\":7,\"i\":\"7a7ffe52-8539-4a40-82b2-36ba107934de\"},\"panelIndex\":\"7a7ffe52-8539-4a40-82b2-36ba107934de\",\"embeddableConfig\":{\"savedVis\":{\"id\":\"\",\"title\":\"\",\"description\":\"\",\"type\":\"markdown\",\"params\":{\"fontSize\":12,\"openLinksInNewTab\":false,\"markdown\":\"# 疑问\\n0. 列表格式能否不用筛选\"},\"uiState\":{},\"data\":{\"aggs\":[],\"searchSource\":{\"query\":{\"query\":\"\",\"language\":\"kuery\"},\"filter\":[]}}},\"hidePanelTitles\":false,\"enhancements\":{}},\"title\":\"代办事项\"},{\"version\":\"7.17.3\",\"type\":\"lens\",\"gridData\":{\"x\":0,\"y\":30,\"w\":24,\"h\":16,\"i\":\"6d32eed9-1757-48ca-8a22-264e92a74771\"},\"panelIndex\":\"6d32eed9-1757-48ca-8a22-264e92a74771\",\"embeddableConfig\":{\"attributes\":{\"title\":\"\",\"visualizationType\":\"lnsXY\",\"type\":\"lens\",\"references\":[{\"type\":\"index-pattern\",\"id\":\"f198a310-1a67-11ee-8735-ed0b718f5f2e\",\"name\":\"indexpattern-datasource-current-indexpattern\"},{\"type\":\"index-pattern\",\"id\":\"f198a310-1a67-11ee-8735-ed0b718f5f2e\",\"name\":\"indexpattern-datasource-layer-c0ed71e0-b712-4d6b-9172-cb08c3bd994a\"}],\"state\":{\"visualization\":{\"legend\":{\"isVisible\":true,\"position\":\"right\"},\"valueLabels\":\"hide\",\"fittingFunction\":\"None\",\"yLeftExtent\":{\"mode\":\"full\"},\"yRightExtent\":{\"mode\":\"full\"},\"axisTitlesVisibilitySettings\":{\"x\":true,\"yLeft\":true,\"yRight\":true},\"tickLabelsVisibilitySettings\":{\"x\":true,\"yLeft\":true,\"yRight\":true},\"labelsOrientation\":{\"x\":0,\"yLeft\":0,\"yRight\":0},\"gridlinesVisibilitySettings\":{\"x\":true,\"yLeft\":true,\"yRight\":true},\"preferredSeriesType\":\"area\",\"layers\":[{\"layerId\":\"c0ed71e0-b712-4d6b-9172-cb08c3bd994a\",\"seriesType\":\"area\",\"xAccessor\":\"3b5a412e-460e-4364-a58b-dc8a5b60ffc3\",\"accessors\":[\"aae59fca-47f2-4037-961e-2e6412a82c48\"],\"layerType\":\"data\"}]},\"query\":{\"query\":\"\",\"language\":\"kuery\"},\"filters\":[],\"datasourceStates\":{\"indexpattern\":{\"layers\":{\"c0ed71e0-b712-4d6b-9172-cb08c3bd994a\":{\"columns\":{\"aae59fca-47f2-4037-961e-2e6412a82c48\":{\"label\":\"资产规模(亿元) 之和\",\"dataType\":\"number\",\"operationType\":\"sum\",\"sourceField\":\"资产规模(亿元)\",\"isBucketed\":false,\"scale\":\"ratio\"},\"3b5a412e-460e-4364-a58b-dc8a5b60ffc3\":{\"label\":\"基金类型 排名最前值\",\"dataType\":\"string\",\"operationType\":\"terms\",\"scale\":\"ordinal\",\"sourceField\":\"基金类型\",\"isBucketed\":true,\"params\":{\"size\":5,\"orderBy\":{\"type\":\"column\",\"columnId\":\"aae59fca-47f2-4037-961e-2e6412a82c48\"},\"orderDirection\":\"desc\",\"otherBucket\":true,\"missingBucket\":false}}},\"columnOrder\":[\"3b5a412e-460e-4364-a58b-dc8a5b60ffc3\",\"aae59fca-47f2-4037-961e-2e6412a82c48\"],\"incompleteColumns\":{}}}}}}},\"hidePanelTitles\":false,\"enhancements\":{}},\"title\":\"规模趋势\"},{\"version\":\"7.17.3\",\"type\":\"visualization\",\"gridData\":{\"x\":24,\"y\":46,\"w\":15,\"h\":23,\"i\":\"304e1b41-6116-40c7-9c75-456d02639f5d\"},\"panelIndex\":\"304e1b41-6116-40c7-9c75-456d02639f5d\",\"embeddableConfig\":{\"savedVis\":{\"id\":\"\",\"title\":\"\",\"description\":\"\",\"type\":\"pie\",\"params\":{\"type\":\"pie\",\"addTooltip\":true,\"addLegend\":true,\"legendPosition\":\"right\",\"nestedLegend\":false,\"truncateLegend\":true,\"maxLegendLines\":5,\"distinctColors\":false,\"isDonut\":true,\"palette\":{\"type\":\"palette\",\"name\":\"default\"},\"labels\":{\"show\":true,\"last_level\":false,\"values\":true,\"valuesFormat\":\"value\",\"percentDecimals\":2,\"truncate\":100,\"position\":\"default\"}},\"uiState\":{\"vis\":{\"legendOpen\":true}},\"data\":{\"aggs\":[{\"id\":\"1\",\"enabled\":true,\"type\":\"count\",\"params\":{},\"schema\":\"metric\"},{\"id\":\"2\",\"enabled\":true,\"type\":\"terms\",\"params\":{\"field\":\"基金类型\",\"orderBy\":\"1\",\"order\":\"desc\",\"size\":5,\"otherBucket\":false,\"otherBucketLabel\":\"其他\",\"missingBucket\":false,\"missingBucketLabel\":\"缺失\"},\"schema\":\"segment\"}],\"searchSource\":{\"index\":\"f198a310-1a67-11ee-8735-ed0b718f5f2e\",\"query\":{\"query\":\"\",\"language\":\"kuery\"},\"filter\":[]}}},\"vis\":{\"legendOpen\":true},\"hidePanelTitles\":false,\"enhancements\":{}},\"title\":\"类型数量占比\"},{\"version\":\"7.17.3\",\"type\":\"lens\",\"gridData\":{\"x\":39,\"y\":46,\"w\":4,\"h\":7,\"i\":\"aefe1275-d229-4fec-ac7d-70e5d8383d3f\"},\"panelIndex\":\"aefe1275-d229-4fec-ac7d-70e5d8383d3f\",\"embeddableConfig\":{\"attributes\":{\"title\":\"\",\"visualizationType\":\"lnsMetric\",\"type\":\"lens\",\"references\":[{\"type\":\"index-pattern\",\"id\":\"f198a310-1a67-11ee-8735-ed0b718f5f2e\",\"name\":\"indexpattern-datasource-current-indexpattern\"},{\"type\":\"index-pattern\",\"id\":\"f198a310-1a67-11ee-8735-ed0b718f5f2e\",\"name\":\"indexpattern-datasource-layer-caa429cc-9e8f-428d-b018-a9d861ee9853\"}],\"state\":{\"visualization\":{\"layerId\":\"caa429cc-9e8f-428d-b018-a9d861ee9853\",\"accessor\":\"f697bb37-19f7-431e-9a1e-c688ee912012\",\"layerType\":\"data\"},\"query\":{\"query\":\"\",\"language\":\"kuery\"},\"filters\":[],\"datasourceStates\":{\"indexpattern\":{\"layers\":{\"caa429cc-9e8f-428d-b018-a9d861ee9853\":{\"columns\":{\"f697bb37-19f7-431e-9a1e-c688ee912012\":{\"label\":\"记录计数\",\"dataType\":\"number\",\"operationType\":\"count\",\"isBucketed\":false,\"scale\":\"ratio\",\"sourceField\":\"记录\"}},\"columnOrder\":[\"f697bb37-19f7-431e-9a1e-c688ee912012\"],\"incompleteColumns\":{}}}}}}},\"enhancements\":{},\"hidePanelTitles\":true}},{\"version\":\"7.17.3\",\"type\":\"lens\",\"gridData\":{\"x\":39,\"y\":53,\"w\":9,\"h\":16,\"i\":\"379e93de-f801-4299-ac92-7e44b4af4ab2\"},\"panelIndex\":\"379e93de-f801-4299-ac92-7e44b4af4ab2\",\"embeddableConfig\":{\"attributes\":{\"title\":\"\",\"visualizationType\":\"lnsXY\",\"type\":\"lens\",\"references\":[{\"type\":\"index-pattern\",\"id\":\"f198a310-1a67-11ee-8735-ed0b718f5f2e\",\"name\":\"indexpattern-datasource-current-indexpattern\"},{\"type\":\"index-pattern\",\"id\":\"f198a310-1a67-11ee-8735-ed0b718f5f2e\",\"name\":\"indexpattern-datasource-layer-5b2915e7-5443-4bf0-b151-b252a964b039\"}],\"state\":{\"visualization\":{\"legend\":{\"isVisible\":true,\"position\":\"right\"},\"valueLabels\":\"hide\",\"fittingFunction\":\"None\",\"yLeftExtent\":{\"mode\":\"full\"},\"yRightExtent\":{\"mode\":\"full\"},\"axisTitlesVisibilitySettings\":{\"x\":true,\"yLeft\":true,\"yRight\":true},\"tickLabelsVisibilitySettings\":{\"x\":true,\"yLeft\":true,\"yRight\":true},\"labelsOrientation\":{\"x\":0,\"yLeft\":0,\"yRight\":0},\"gridlinesVisibilitySettings\":{\"x\":true,\"yLeft\":true,\"yRight\":true},\"preferredSeriesType\":\"bar_horizontal\",\"layers\":[{\"layerId\":\"5b2915e7-5443-4bf0-b151-b252a964b039\",\"accessors\":[\"c668dd39-d387-4ec6-be40-398019f985c9\"],\"position\":\"top\",\"seriesType\":\"bar_horizontal\",\"showGridlines\":false,\"layerType\":\"data\",\"xAccessor\":\"2c7fff60-bba3-4e70-b493-8fc2aaeefa2f\"}]},\"query\":{\"query\":\"\",\"language\":\"kuery\"},\"filters\":[],\"datasourceStates\":{\"indexpattern\":{\"layers\":{\"5b2915e7-5443-4bf0-b151-b252a964b039\":{\"columns\":{\"2c7fff60-bba3-4e70-b493-8fc2aaeefa2f\":{\"label\":\"基金类型 排名最前值\",\"dataType\":\"string\",\"operationType\":\"terms\",\"scale\":\"ordinal\",\"sourceField\":\"基金类型\",\"isBucketed\":true,\"params\":{\"size\":999,\"orderBy\":{\"type\":\"column\",\"columnId\":\"c668dd39-d387-4ec6-be40-398019f985c9\"},\"orderDirection\":\"desc\",\"otherBucket\":true,\"missingBucket\":false}},\"c668dd39-d387-4ec6-be40-398019f985c9\":{\"label\":\"记录计数\",\"dataType\":\"number\",\"operationType\":\"count\",\"isBucketed\":false,\"scale\":\"ratio\",\"sourceField\":\"记录\"}},\"columnOrder\":[\"2c7fff60-bba3-4e70-b493-8fc2aaeefa2f\",\"c668dd39-d387-4ec6-be40-398019f985c9\"],\"incompleteColumns\":{}}}}}}},\"enhancements\":{},\"hidePanelTitles\":false},\"title\":\"类型数量排名\"},{\"version\":\"7.17.3\",\"type\":\"lens\",\"gridData\":{\"x\":0,\"y\":46,\"w\":24,\"h\":34,\"i\":\"53434fcb-9bf6-4a69-8bed-8688760dd24a\"},\"panelIndex\":\"53434fcb-9bf6-4a69-8bed-8688760dd24a\",\"embeddableConfig\":{\"attributes\":{\"title\":\"\",\"visualizationType\":\"lnsPie\",\"type\":\"lens\",\"references\":[{\"type\":\"index-pattern\",\"id\":\"f198a310-1a67-11ee-8735-ed0b718f5f2e\",\"name\":\"indexpattern-datasource-current-indexpattern\"},{\"type\":\"index-pattern\",\"id\":\"f198a310-1a67-11ee-8735-ed0b718f5f2e\",\"name\":\"indexpattern-datasource-layer-14cc5c74-1e13-4d3f-afc4-5c6ed923c184\"}],\"state\":{\"visualization\":{\"shape\":\"donut\",\"layers\":[{\"layerId\":\"14cc5c74-1e13-4d3f-afc4-5c6ed923c184\",\"groups\":[\"8cf0b6c4-3169-4a8d-af69-a41df2b8615f\",\"b327e367-1958-403d-a0a2-afd4d3053b29\"],\"metric\":\"c8095a5a-46b7-44ae-8e6c-72db6f7afd7d\",\"numberDisplay\":\"percent\",\"categoryDisplay\":\"default\",\"legendDisplay\":\"default\",\"nestedLegend\":true,\"layerType\":\"data\",\"legendMaxLines\":5,\"legendPosition\":\"right\"}]},\"query\":{\"query\":\"\",\"language\":\"kuery\"},\"filters\":[],\"datasourceStates\":{\"indexpattern\":{\"layers\":{\"14cc5c74-1e13-4d3f-afc4-5c6ed923c184\":{\"columns\":{\"8cf0b6c4-3169-4a8d-af69-a41df2b8615f\":{\"label\":\"基金简称 排名最前值\",\"dataType\":\"string\",\"operationType\":\"terms\",\"scale\":\"ordinal\",\"sourceField\":\"基金简称\",\"isBucketed\":true,\"params\":{\"size\":999,\"orderBy\":{\"type\":\"column\",\"columnId\":\"c8095a5a-46b7-44ae-8e6c-72db6f7afd7d\"},\"orderDirection\":\"asc\",\"otherBucket\":true,\"missingBucket\":false}},\"c8095a5a-46b7-44ae-8e6c-72db6f7afd7d\":{\"label\":\"资产规模(亿元) 的中位值\",\"dataType\":\"number\",\"operationType\":\"median\",\"sourceField\":\"资产规模(亿元)\",\"isBucketed\":false,\"scale\":\"ratio\",\"params\":{\"format\":{\"id\":\"number\",\"params\":{\"decimals\":2}}}},\"b327e367-1958-403d-a0a2-afd4d3053b29\":{\"label\":\"资产规模(亿元)\",\"dataType\":\"number\",\"operationType\":\"range\",\"sourceField\":\"资产规模(亿元)\",\"isBucketed\":true,\"scale\":\"interval\",\"params\":{\"type\":\"histogram\",\"ranges\":[{\"from\":0,\"to\":1000,\"label\":\"\"}],\"maxBars\":\"auto\"}}},\"columnOrder\":[\"8cf0b6c4-3169-4a8d-af69-a41df2b8615f\",\"b327e367-1958-403d-a0a2-afd4d3053b29\",\"c8095a5a-46b7-44ae-8e6c-72db6f7afd7d\"],\"incompleteColumns\":{}}}}}}},\"enhancements\":{},\"hidePanelTitles\":false},\"title\":\"规模占比\"}]","timeRestore":false,"title":"基金概览","version":1},"coreMigrationVersion":"7.17.3","id":"13de0630-1a69-11ee-8735-ed0b718f5f2e","migrationVersion":{"dashboard":"7.17.3"},"references":[{"id":"f198a310-1a67-11ee-8735-ed0b718f5f2e","name":"ab2013a6-0d14-4b47-a942-b6b9cabad076:indexpattern-datasource-current-indexpattern","type":"index-pattern"},{"id":"f198a310-1a67-11ee-8735-ed0b718f5f2e","name":"ab2013a6-0d14-4b47-a942-b6b9cabad076:indexpattern-datasource-layer-ef94b170-edc1-40b0-8ccc-83a86e7722b6","type":"index-pattern"},{"id":"6b32f670-1b36-11ee-92df-9d60b72cab31","name":"64ee9b86-2d21-480e-9f05-643e6ac2cae8:indexpattern-datasource-current-indexpattern","type":"index-pattern"},{"id":"6b32f670-1b36-11ee-92df-9d60b72cab31","name":"64ee9b86-2d21-480e-9f05-643e6ac2cae8:indexpattern-datasource-layer-bc952f3b-4943-46a9-a997-bef7945fc650","type":"index-pattern"},{"id":"f198a310-1a67-11ee-8735-ed0b718f5f2e","name":"3185dfe6-01fb-4566-b70a-a942f46e02cb:kibanaSavedObjectMeta.searchSourceJSON.index","type":"index-pattern"},{"id":"f198a310-1a67-11ee-8735-ed0b718f5f2e","name":"6d32eed9-1757-48ca-8a22-264e92a74771:indexpattern-datasource-current-indexpattern","type":"index-pattern"},{"id":"f198a310-1a67-11ee-8735-ed0b718f5f2e","name":"6d32eed9-1757-48ca-8a22-264e92a74771:indexpattern-datasource-layer-c0ed71e0-b712-4d6b-9172-cb08c3bd994a","type":"index-pattern"},{"id":"f198a310-1a67-11ee-8735-ed0b718f5f2e","name":"304e1b41-6116-40c7-9c75-456d02639f5d:kibanaSavedObjectMeta.searchSourceJSON.index","type":"index-pattern"},{"id":"f198a310-1a67-11ee-8735-ed0b718f5f2e","name":"aefe1275-d229-4fec-ac7d-70e5d8383d3f:indexpattern-datasource-current-indexpattern","type":"index-pattern"},{"id":"f198a310-1a67-11ee-8735-ed0b718f5f2e","name":"aefe1275-d229-4fec-ac7d-70e5d8383d3f:indexpattern-datasource-layer-caa429cc-9e8f-428d-b018-a9d861ee9853","type":"index-pattern"},{"id":"f198a310-1a67-11ee-8735-ed0b718f5f2e","name":"379e93de-f801-4299-ac92-7e44b4af4ab2:indexpattern-datasource-current-indexpattern","type":"index-pattern"},{"id":"f198a310-1a67-11ee-8735-ed0b718f5f2e","name":"379e93de-f801-4299-ac92-7e44b4af4ab2:indexpattern-datasource-layer-5b2915e7-5443-4bf0-b151-b252a964b039","type":"index-pattern"},{"id":"f198a310-1a67-11ee-8735-ed0b718f5f2e","name":"53434fcb-9bf6-4a69-8bed-8688760dd24a:indexpattern-datasource-current-indexpattern","type":"index-pattern"},{"id":"f198a310-1a67-11ee-8735-ed0b718f5f2e","name":"53434fcb-9bf6-4a69-8bed-8688760dd24a:indexpattern-datasource-layer-14cc5c74-1e13-4d3f-afc4-5c6ed923c184","type":"index-pattern"},{"id":"55cf1c20-e1a6-11ec-a7ea-b54607c2d089","name":"tag-55cf1c20-e1a6-11ec-a7ea-b54607c2d089","type":"tag"}],"sort":[1689038664146,1113],"type":"dashboard","updated_at":"2023-07-11T01:24:24.146Z","version":"WzE2NjA0LDE0XQ=="}
{"attributes":{"description":"","hits":0,"kibanaSavedObjectMeta":{"searchSourceJSON":"{\"query\":{\"query\":\"\",\"language\":\"kuery\"},\"filter\":[{\"meta\":{\"type\":\"phrase\",\"key\":\"基金简称\",\"params\":{\"query\":\"招商行业精选股票基金\"},\"disabled\":false,\"negate\":false,\"alias\":null,\"indexRefName\":\"kibanaSavedObjectMeta.searchSourceJSON.filter[0].meta.index\"},\"query\":{\"match_phrase\":{\"基金简称\":\"招商行业精选股票基金\"}},\"$state\":{\"store\":\"appState\"}}]}"},"optionsJSON":"{\"useMargins\":true,\"syncColors\":true,\"hidePanelTitles\":false}","panelsJSON":"[{\"version\":\"7.17.3\",\"type\":\"visualization\",\"gridData\":{\"x\":0,\"y\":0,\"w\":48,\"h\":11,\"i\":\"f910ee61-7027-405d-8bc0-7bbffea6ac00\"},\"panelIndex\":\"f910ee61-7027-405d-8bc0-7bbffea6ac00\",\"embeddableConfig\":{\"savedVis\":{\"id\":\"\",\"title\":\"\",\"description\":\"\",\"type\":\"tagcloud\",\"params\":{\"scale\":\"linear\",\"orientation\":\"single\",\"minFontSize\":18,\"maxFontSize\":72,\"showLabel\":true,\"palette\":{\"name\":\"default\",\"type\":\"palette\"}},\"uiState\":{},\"data\":{\"aggs\":[{\"id\":\"1\",\"enabled\":true,\"type\":\"median\",\"params\":{\"field\":\"评级分数\"},\"schema\":\"metric\"},{\"id\":\"2\",\"enabled\":true,\"type\":\"terms\",\"params\":{\"field\":\"基金简称\",\"orderBy\":\"_key\",\"order\":\"desc\",\"size\":999,\"otherBucket\":false,\"otherBucketLabel\":\"其他\",\"missingBucket\":false,\"missingBucketLabel\":\"缺失\"},\"schema\":\"segment\"}],\"searchSource\":{\"index\":\"6aca9e90-1c71-11ee-b050-7b7c314bf02b\",\"query\":{\"query\":\"\",\"language\":\"kuery\"},\"filter\":[]}}},\"enhancements\":{}}},{\"version\":\"7.17.3\",\"type\":\"visualization\",\"gridData\":{\"x\":0,\"y\":11,\"w\":48,\"h\":8,\"i\":\"a169e2bf-8582-4aea-b8f4-63df36a464dc\"},\"panelIndex\":\"a169e2bf-8582-4aea-b8f4-63df36a464dc\",\"embeddableConfig\":{\"savedVis\":{\"id\":\"\",\"title\":\"\",\"description\":\"\",\"type\":\"metric\",\"params\":{\"addTooltip\":true,\"addLegend\":false,\"type\":\"metric\",\"metric\":{\"percentageMode\":false,\"useRanges\":false,\"colorSchema\":\"Green to Red\",\"metricColorMode\":\"None\",\"colorsRange\":[{\"from\":0,\"to\":10000}],\"labels\":{\"show\":true},\"invertColors\":false,\"style\":{\"bgFill\":\"#000\",\"bgColor\":false,\"labelColor\":false,\"subText\":\"\",\"fontSize\":60}}},\"uiState\":{},\"data\":{\"aggs\":[{\"id\":\"1\",\"enabled\":true,\"type\":\"avg\",\"params\":{\"field\":\"评级分数\"},\"schema\":\"metric\"},{\"id\":\"2\",\"enabled\":true,\"type\":\"terms\",\"params\":{\"field\":\"评级机构\",\"orderBy\":\"_key\",\"order\":\"desc\",\"size\":5,\"otherBucket\":false,\"otherBucketLabel\":\"其他\",\"missingBucket\":false,\"missingBucketLabel\":\"缺失\"},\"schema\":\"group\"}],\"searchSource\":{\"index\":\"6aca9e90-1c71-11ee-b050-7b7c314bf02b\",\"query\":{\"query\":\"\",\"language\":\"kuery\"},\"filter\":[]}}},\"enhancements\":{}}},{\"version\":\"7.17.3\",\"type\":\"visualization\",\"gridData\":{\"x\":0,\"y\":19,\"w\":7,\"h\":8,\"i\":\"c0366be4-9ba4-41a3-8ea5-061da334c90b\"},\"panelIndex\":\"c0366be4-9ba4-41a3-8ea5-061da334c90b\",\"embeddableConfig\":{\"savedVis\":{\"id\":\"\",\"title\":\"\",\"description\":\"\",\"type\":\"metric\",\"params\":{\"addTooltip\":true,\"addLegend\":false,\"type\":\"metric\",\"metric\":{\"percentageMode\":false,\"useRanges\":false,\"colorSchema\":\"Green to Red\",\"metricColorMode\":\"None\",\"colorsRange\":[{\"from\":0,\"to\":10000}],\"labels\":{\"show\":true},\"invertColors\":false,\"style\":{\"bgFill\":\"#000\",\"bgColor\":false,\"labelColor\":false,\"subText\":\"\",\"fontSize\":60}}},\"uiState\":{},\"data\":{\"aggs\":[{\"id\":\"1\",\"enabled\":true,\"type\":\"avg\",\"params\":{\"field\":\"评级分数\"},\"schema\":\"metric\"}],\"searchSource\":{\"index\":\"6aca9e90-1c71-11ee-b050-7b7c314bf02b\",\"query\":{\"query\":\"\",\"language\":\"kuery\"},\"filter\":[]}}},\"enhancements\":{}}},{\"version\":\"7.17.3\",\"type\":\"visualization\",\"gridData\":{\"x\":7,\"y\":19,\"w\":9,\"h\":8,\"i\":\"e377f1af-74c0-4614-b570-771353e82afb\"},\"panelIndex\":\"e377f1af-74c0-4614-b570-771353e82afb\",\"embeddableConfig\":{\"savedVis\":{\"id\":\"\",\"title\":\"\",\"description\":\"\",\"type\":\"metric\",\"params\":{\"addTooltip\":true,\"addLegend\":false,\"type\":\"metric\",\"metric\":{\"percentageMode\":false,\"useRanges\":false,\"colorSchema\":\"Green to Red\",\"metricColorMode\":\"None\",\"colorsRange\":[{\"from\":0,\"to\":10000}],\"labels\":{\"show\":true},\"invertColors\":false,\"style\":{\"bgFill\":\"#000\",\"bgColor\":false,\"labelColor\":false,\"subText\":\"\",\"fontSize\":60}}},\"uiState\":{},\"data\":{\"aggs\":[{\"id\":\"1\",\"enabled\":true,\"type\":\"median\",\"params\":{\"field\":\"评级分数\"},\"schema\":\"metric\"}],\"searchSource\":{\"index\":\"6aca9e90-1c71-11ee-b050-7b7c314bf02b\",\"query\":{\"query\":\"\",\"language\":\"kuery\"},\"filter\":[]}}},\"enhancements\":{}}},{\"version\":\"7.17.3\",\"type\":\"visualization\",\"gridData\":{\"x\":16,\"y\":19,\"w\":8,\"h\":8,\"i\":\"c74e0066-7bc3-4975-92af-b3648173734b\"},\"panelIndex\":\"c74e0066-7bc3-4975-92af-b3648173734b\",\"embeddableConfig\":{\"savedVis\":{\"id\":\"\",\"title\":\"\",\"description\":\"\",\"type\":\"metric\",\"params\":{\"addTooltip\":true,\"addLegend\":false,\"type\":\"metric\",\"metric\":{\"percentageMode\":false,\"useRanges\":false,\"colorSchema\":\"Green to Red\",\"metricColorMode\":\"None\",\"colorsRange\":[{\"from\":0,\"to\":10000}],\"labels\":{\"show\":true},\"invertColors\":false,\"style\":{\"bgFill\":\"#000\",\"bgColor\":false,\"labelColor\":false,\"subText\":\"\",\"fontSize\":60}}},\"uiState\":{},\"data\":{\"aggs\":[{\"id\":\"1\",\"enabled\":true,\"type\":\"count\",\"params\":{},\"schema\":\"metric\"}],\"searchSource\":{\"index\":\"6aca9e90-1c71-11ee-b050-7b7c314bf02b\"}}},\"enhancements\":{}}},{\"version\":\"7.17.3\",\"type\":\"visualization\",\"gridData\":{\"x\":24,\"y\":19,\"w\":24,\"h\":15,\"i\":\"ca794872-ffc0-4bf9-a3dd-9d10ba0aebdd\"},\"panelIndex\":\"ca794872-ffc0-4bf9-a3dd-9d10ba0aebdd\",\"embeddableConfig\":{\"savedVis\":{\"id\":\"\",\"title\":\"\",\"description\":\"\",\"type\":\"line\",\"params\":{\"type\":\"line\",\"grid\":{\"categoryLines\":false},\"categoryAxes\":[{\"id\":\"CategoryAxis-1\",\"type\":\"category\",\"position\":\"bottom\",\"show\":true,\"scale\":{\"type\":\"linear\"},\"labels\":{\"show\":true,\"filter\":true,\"truncate\":100},\"title\":{},\"style\":{}}],\"valueAxes\":[{\"id\":\"ValueAxis-1\",\"name\":\"LeftAxis-1\",\"type\":\"value\",\"position\":\"left\",\"show\":true,\"scale\":{\"type\":\"linear\",\"mode\":\"normal\"},\"labels\":{\"show\":true,\"rotate\":0,\"filter\":false,\"truncate\":100},\"title\":{\"text\":\"评级分数平均值\"},\"style\":{}}],\"seriesParams\":[{\"show\":true,\"type\":\"line\",\"mode\":\"normal\",\"data\":{\"label\":\"评级分数平均值\",\"id\":\"1\"},\"valueAxis\":\"ValueAxis-1\",\"drawLinesBetweenPoints\":true,\"lineWidth\":2,\"interpolate\":\"linear\",\"showCircles\":true,\"circlesRadius\":1}],\"addTooltip\":true,\"detailedTooltip\":true,\"palette\":{\"type\":\"palette\",\"name\":\"default\"},\"addLegend\":true,\"legendPosition\":\"right\",\"fittingFunction\":\"linear\",\"times\":[],\"addTimeMarker\":false,\"truncateLegend\":true,\"maxLegendLines\":1,\"labels\":{},\"radiusRatio\":9,\"thresholdLine\":{\"show\":false,\"value\":10,\"width\":1,\"style\":\"full\",\"color\":\"#E7664C\"}},\"uiState\":{},\"data\":{\"aggs\":[{\"id\":\"1\",\"enabled\":true,\"type\":\"avg\",\"params\":{\"field\":\"评级分数\"},\"schema\":\"metric\"},{\"id\":\"2\",\"enabled\":true,\"type\":\"terms\",\"params\":{\"field\":\"报告日期\",\"orderBy\":\"_key\",\"order\":\"asc\",\"size\":999,\"otherBucket\":false,\"otherBucketLabel\":\"其他\",\"missingBucket\":false,\"missingBucketLabel\":\"缺失\"},\"schema\":\"segment\"},{\"id\":\"3\",\"enabled\":true,\"type\":\"terms\",\"params\":{\"field\":\"基金简称\",\"orderBy\":\"_key\",\"order\":\"desc\",\"size\":5,\"otherBucket\":false,\"otherBucketLabel\":\"其他\",\"missingBucket\":false,\"missingBucketLabel\":\"缺失\"},\"schema\":\"group\"}],\"searchSource\":{\"index\":\"6aca9e90-1c71-11ee-b050-7b7c314bf02b\",\"query\":{\"query\":\"\",\"language\":\"kuery\"},\"filter\":[]}}},\"enhancements\":{}}},{\"version\":\"7.17.3\",\"type\":\"lens\",\"gridData\":{\"x\":0,\"y\":27,\"w\":24,\"h\":15,\"i\":\"c74523a6-5a9c-431f-8222-36c154bcc45f\"},\"panelIndex\":\"c74523a6-5a9c-431f-8222-36c154bcc45f\",\"embeddableConfig\":{\"attributes\":{\"title\":\"\",\"visualizationType\":\"lnsDatatable\",\"type\":\"lens\",\"references\":[{\"type\":\"index-pattern\",\"id\":\"6aca9e90-1c71-11ee-b050-7b7c314bf02b\",\"name\":\"indexpattern-datasource-current-indexpattern\"},{\"type\":\"index-pattern\",\"id\":\"6aca9e90-1c71-11ee-b050-7b7c314bf02b\",\"name\":\"indexpattern-datasource-layer-43269560-9131-41d2-8284-adf32e0cb1d5\"}],\"state\":{\"visualization\":{\"columns\":[{\"isTransposed\":false,\"columnId\":\"66f9cd0a-141e-4957-96cd-675660161b3d\",\"alignment\":\"center\"},{\"isTransposed\":false,\"columnId\":\"66f9cd0a-141e-4957-96cd-675660161b3d\",\"alignment\":\"center\"},{\"isTransposed\":false,\"columnId\":\"bbb632e7-8371-4961-8b7c-0ac3352f84cc\"},{\"isTransposed\":false,\"columnId\":\"c3c7e3e1-8fd7-4057-9f31-320dbc065d66\"},{\"columnId\":\"6521d3d1-1a76-4b37-8d0e-4148b5c26034\",\"isTransposed\":false}],\"layerId\":\"43269560-9131-41d2-8284-adf32e0cb1d5\",\"layerType\":\"data\"},\"query\":{\"query\":\"\",\"language\":\"kuery\"},\"filters\":[],\"datasourceStates\":{\"indexpattern\":{\"layers\":{\"43269560-9131-41d2-8284-adf32e0cb1d5\":{\"columns\":{\"66f9cd0a-141e-4957-96cd-675660161b3d\":{\"label\":\"报告日期 排名最前值\",\"dataType\":\"string\",\"operationType\":\"terms\",\"scale\":\"ordinal\",\"sourceField\":\"报告日期\",\"isBucketed\":true,\"params\":{\"size\":999,\"orderBy\":{\"type\":\"alphabetical\",\"fallback\":false},\"orderDirection\":\"desc\",\"otherBucket\":true,\"missingBucket\":true}},\"bbb632e7-8371-4961-8b7c-0ac3352f84cc\":{\"label\":\"评级机构 排名最前值\",\"dataType\":\"string\",\"operationType\":\"terms\",\"scale\":\"ordinal\",\"sourceField\":\"评级机构\",\"isBucketed\":true,\"params\":{\"size\":3,\"orderBy\":{\"type\":\"alphabetical\",\"fallback\":false},\"orderDirection\":\"asc\",\"otherBucket\":true,\"missingBucket\":false}},\"c3c7e3e1-8fd7-4057-9f31-320dbc065d66\":{\"label\":\"评级分数 的最大值\",\"dataType\":\"number\",\"operationType\":\"max\",\"sourceField\":\"评级分数\",\"isBucketed\":false,\"scale\":\"ratio\"},\"6521d3d1-1a76-4b37-8d0e-4148b5c26034\":{\"label\":\"基金简称 排名最前值\",\"dataType\":\"string\",\"operationType\":\"terms\",\"scale\":\"ordinal\",\"sourceField\":\"基金简称\",\"isBucketed\":true,\"params\":{\"size\":999,\"orderBy\":{\"type\":\"column\",\"columnId\":\"c3c7e3e1-8fd7-4057-9f31-320dbc065d66\"},\"orderDirection\":\"desc\",\"otherBucket\":true,\"missingBucket\":false}}},\"columnOrder\":[\"6521d3d1-1a76-4b37-8d0e-4148b5c26034\",\"bbb632e7-8371-4961-8b7c-0ac3352f84cc\",\"66f9cd0a-141e-4957-96cd-675660161b3d\",\"c3c7e3e1-8fd7-4057-9f31-320dbc065d66\"],\"incompleteColumns\":{}}}}}}},\"enhancements\":{}}},{\"version\":\"7.17.3\",\"type\":\"visualization\",\"gridData\":{\"x\":24,\"y\":34,\"w\":24,\"h\":23,\"i\":\"b923f84f-6e7b-4ac6-b8d4-689778d05b03\"},\"panelIndex\":\"b923f84f-6e7b-4ac6-b8d4-689778d05b03\",\"embeddableConfig\":{\"savedVis\":{\"id\":\"\",\"title\":\"\",\"description\":\"\",\"type\":\"horizontal_bar\",\"params\":{\"type\":\"histogram\",\"grid\":{\"categoryLines\":true,\"valueAxis\":\"ValueAxis-1\"},\"categoryAxes\":[{\"id\":\"CategoryAxis-1\",\"type\":\"category\",\"position\":\"left\",\"show\":true,\"scale\":{\"type\":\"linear\"},\"labels\":{\"show\":true,\"rotate\":0,\"filter\":true,\"truncate\":200},\"title\":{},\"style\":{}}],\"valueAxes\":[{\"id\":\"ValueAxis-1\",\"name\":\"LeftAxis-1\",\"type\":\"value\",\"position\":\"bottom\",\"show\":true,\"scale\":{\"type\":\"linear\",\"mode\":\"normal\"},\"labels\":{\"show\":true,\"rotate\":75,\"filter\":true,\"truncate\":100},\"title\":{\"text\":\"\"},\"style\":{}}],\"seriesParams\":[{\"show\":true,\"type\":\"histogram\",\"mode\":\"normal\",\"data\":{\"label\":\"计数\",\"id\":\"1\"},\"interpolate\":\"linear\",\"valueAxis\":\"ValueAxis-1\",\"drawLinesBetweenPoints\":true,\"lineWidth\":2,\"showCircles\":true,\"circlesRadius\":1}],\"addTooltip\":true,\"detailedTooltip\":true,\"palette\":{\"type\":\"palette\",\"name\":\"default\"},\"addLegend\":true,\"legendPosition\":\"right\",\"times\":[],\"addTimeMarker\":false,\"truncateLegend\":true,\"maxLegendLines\":1,\"labels\":{\"show\":true},\"radiusRatio\":0,\"thresholdLine\":{\"show\":false,\"value\":10,\"width\":1,\"style\":\"full\",\"color\":\"#E7664C\"},\"row\":false},\"uiState\":{},\"data\":{\"aggs\":[{\"id\":\"1\",\"enabled\":true,\"type\":\"count\",\"params\":{},\"schema\":\"metric\"},{\"id\":\"2\",\"enabled\":true,\"type\":\"terms\",\"params\":{\"field\":\"评级分数\",\"orderBy\":\"_key\",\"order\":\"asc\",\"size\":999,\"otherBucket\":false,\"otherBucketLabel\":\"其他\",\"missingBucket\":false,\"missingBucketLabel\":\"缺失\"},\"schema\":\"segment\"},{\"id\":\"3\",\"enabled\":true,\"type\":\"terms\",\"params\":{\"field\":\"基金简称\",\"orderBy\":\"1\",\"order\":\"desc\",\"size\":999,\"otherBucket\":false,\"otherBucketLabel\":\"其他\",\"missingBucket\":false,\"missingBucketLabel\":\"缺失\"},\"schema\":\"group\"},{\"id\":\"5\",\"enabled\":true,\"type\":\"terms\",\"params\":{\"field\":\"评级机构\",\"orderBy\":\"1\",\"order\":\"desc\",\"size\":999,\"otherBucket\":false,\"otherBucketLabel\":\"其他\",\"missingBucket\":false,\"missingBucketLabel\":\"缺失\"},\"schema\":\"split\"}],\"searchSource\":{\"index\":\"6aca9e90-1c71-11ee-b050-7b7c314bf02b\",\"query\":{\"query\":\"\",\"language\":\"kuery\"},\"filter\":[]}}},\"enhancements\":{}}},{\"version\":\"7.17.3\",\"type\":\"visualization\",\"gridData\":{\"x\":0,\"y\":42,\"w\":24,\"h\":15,\"i\":\"62c97819-3aaf-413d-9a49-be2e14da0916\"},\"panelIndex\":\"62c97819-3aaf-413d-9a49-be2e14da0916\",\"embeddableConfig\":{\"savedVis\":{\"id\":\"\",\"title\":\"\",\"description\":\"\",\"type\":\"pie\",\"params\":{\"type\":\"pie\",\"addTooltip\":true,\"addLegend\":true,\"legendPosition\":\"right\",\"nestedLegend\":false,\"truncateLegend\":true,\"maxLegendLines\":1,\"distinctColors\":false,\"isDonut\":true,\"palette\":{\"type\":\"palette\",\"name\":\"default\"},\"labels\":{\"show\":true,\"last_level\":false,\"values\":true,\"valuesFormat\":\"percent\",\"percentDecimals\":2,\"truncate\":100,\"position\":\"default\"}},\"uiState\":{},\"data\":{\"aggs\":[{\"id\":\"1\",\"enabled\":true,\"type\":\"count\",\"params\":{},\"schema\":\"metric\"},{\"id\":\"2\",\"enabled\":true,\"type\":\"terms\",\"params\":{\"field\":\"评级分数\",\"orderBy\":\"1\",\"order\":\"desc\",\"size\":5,\"otherBucket\":true,\"otherBucketLabel\":\"其他\",\"missingBucket\":false,\"missingBucketLabel\":\"缺失\"},\"schema\":\"segment\"}],\"searchSource\":{\"index\":\"6aca9e90-1c71-11ee-b050-7b7c314bf02b\",\"query\":{\"query\":\"\",\"language\":\"kuery\"},\"filter\":[]}}},\"vis\":{\"legendOpen\":true},\"enhancements\":{}}},{\"version\":\"7.17.3\",\"type\":\"visualization\",\"gridData\":{\"x\":0,\"y\":57,\"w\":48,\"h\":23,\"i\":\"9bee8c4c-f0b0-49a7-adc2-da7632be6a43\"},\"panelIndex\":\"9bee8c4c-f0b0-49a7-adc2-da7632be6a43\",\"embeddableConfig\":{\"savedVis\":{\"id\":\"\",\"title\":\"\",\"description\":\"\",\"type\":\"heatmap\",\"params\":{\"type\":\"heatmap\",\"addTooltip\":true,\"addLegend\":true,\"enableHover\":false,\"legendPosition\":\"right\",\"times\":[],\"colorsNumber\":4,\"colorSchema\":\"Green to Red\",\"setColorRange\":false,\"colorsRange\":[],\"invertColors\":false,\"percentageMode\":false,\"valueAxes\":[{\"show\":false,\"id\":\"ValueAxis-1\",\"type\":\"value\",\"scale\":{\"type\":\"linear\",\"defaultYExtents\":false},\"labels\":{\"show\":false,\"rotate\":0,\"overwriteColor\":false,\"color\":\"black\"}}],\"row\":false},\"uiState\":{\"vis\":{\"defaultColors\":{\"0 - 1.25\":\"rgb(0,104,55)\",\"1.25 - 2.5\":\"rgb(134,203,102)\",\"2.5 - 3.75\":\"rgb(254,254,189)\",\"3.75 - 5\":\"rgb(248,141,82)\"}}},\"data\":{\"aggs\":[{\"id\":\"1\",\"enabled\":true,\"type\":\"avg\",\"params\":{\"field\":\"评级分数\"},\"schema\":\"metric\"},{\"id\":\"2\",\"enabled\":true,\"type\":\"terms\",\"params\":{\"field\":\"报告日期\",\"orderBy\":\"_key\",\"order\":\"asc\",\"size\":9999,\"otherBucket\":false,\"otherBucketLabel\":\"其他\",\"missingBucket\":false,\"missingBucketLabel\":\"缺失\"},\"schema\":\"segment\"},{\"id\":\"3\",\"enabled\":true,\"type\":\"terms\",\"params\":{\"field\":\"基金简称\",\"orderBy\":\"1\",\"order\":\"desc\",\"size\":9999,\"otherBucket\":false,\"otherBucketLabel\":\"其他\",\"missingBucket\":false,\"missingBucketLabel\":\"缺失\"},\"schema\":\"group\"}],\"searchSource\":{\"index\":\"6aca9e90-1c71-11ee-b050-7b7c314bf02b\",\"query\":{\"query\":\"\",\"language\":\"kuery\"},\"filter\":[]}}},\"vis\":{\"defaultColors\":{\"0 - 1.25\":\"rgb(247,252,245)\",\"1.25 - 2.5\":\"rgb(198,232,191)\",\"2.5 - 3.75\":\"rgb(114,195,120)\",\"3.75 - 5\":\"rgb(34,139,69)\"},\"legendOpen\":true},\"table\":null,\"enhancements\":{}}}]","timeRestore":false,"title":"基金评级","version":1},"coreMigrationVersion":"7.17.3","id":"18addcb0-1b38-11ee-92df-9d60b72cab31","migrationVersion":{"dashboard":"7.17.3"},"references":[{"id":"6aca9e90-1c71-11ee-b050-7b7c314bf02b","name":"kibanaSavedObjectMeta.searchSourceJSON.filter[0].meta.index","type":"index-pattern"},{"id":"6aca9e90-1c71-11ee-b050-7b7c314bf02b","name":"f910ee61-7027-405d-8bc0-7bbffea6ac00:kibanaSavedObjectMeta.searchSourceJSON.index","type":"index-pattern"},{"id":"6aca9e90-1c71-11ee-b050-7b7c314bf02b","name":"a169e2bf-8582-4aea-b8f4-63df36a464dc:kibanaSavedObjectMeta.searchSourceJSON.index","type":"index-pattern"},{"id":"6aca9e90-1c71-11ee-b050-7b7c314bf02b","name":"c0366be4-9ba4-41a3-8ea5-061da334c90b:kibanaSavedObjectMeta.searchSourceJSON.index","type":"index-pattern"},{"id":"6aca9e90-1c71-11ee-b050-7b7c314bf02b","name":"e377f1af-74c0-4614-b570-771353e82afb:kibanaSavedObjectMeta.searchSourceJSON.index","type":"index-pattern"},{"id":"6aca9e90-1c71-11ee-b050-7b7c314bf02b","name":"c74e0066-7bc3-4975-92af-b3648173734b:kibanaSavedObjectMeta.searchSourceJSON.index","type":"index-pattern"},{"id":"6aca9e90-1c71-11ee-b050-7b7c314bf02b","name":"ca794872-ffc0-4bf9-a3dd-9d10ba0aebdd:kibanaSavedObjectMeta.searchSourceJSON.index","type":"index-pattern"},{"id":"6aca9e90-1c71-11ee-b050-7b7c314bf02b","name":"c74523a6-5a9c-431f-8222-36c154bcc45f:indexpattern-datasource-current-indexpattern","type":"index-pattern"},{"id":"6aca9e90-1c71-11ee-b050-7b7c314bf02b","name":"c74523a6-5a9c-431f-8222-36c154bcc45f:indexpattern-datasource-layer-43269560-9131-41d2-8284-adf32e0cb1d5","type":"index-pattern"},{"id":"6aca9e90-1c71-11ee-b050-7b7c314bf02b","name":"b923f84f-6e7b-4ac6-b8d4-689778d05b03:kibanaSavedObjectMeta.searchSourceJSON.index","type":"index-pattern"},{"id":"6aca9e90-1c71-11ee-b050-7b7c314bf02b","name":"62c97819-3aaf-413d-9a49-be2e14da0916:kibanaSavedObjectMeta.searchSourceJSON.index","type":"index-pattern"},{"id":"6aca9e90-1c71-11ee-b050-7b7c314bf02b","name":"9bee8c4c-f0b0-49a7-adc2-da7632be6a43:kibanaSavedObjectMeta.searchSourceJSON.index","type":"index-pattern"},{"id":"55cf1c20-e1a6-11ec-a7ea-b54607c2d089","name":"tag-55cf1c20-e1a6-11ec-a7ea-b54607c2d089","type":"tag"}],"sort":[1689123620867,1287],"type":"dashboard","updated_at":"2023-07-12T01:00:20.867Z","version":"WzE2ODM3LDE0XQ=="}
{"attributes":{"description":"","hits":0,"kibanaSavedObjectMeta":{"searchSourceJSON":"{\"query\":{\"query\":\"\",\"language\":\"kuery\"},\"filter\":[]}"},"optionsJSON":"{\"useMargins\":true,\"syncColors\":false,\"hidePanelTitles\":false}","panelsJSON":"[{\"version\":\"7.17.3\",\"type\":\"visualization\",\"gridData\":{\"x\":0,\"y\":0,\"w\":48,\"h\":14,\"i\":\"0ac89416-be34-46aa-82de-84b33ec0456e\"},\"panelIndex\":\"0ac89416-be34-46aa-82de-84b33ec0456e\",\"embeddableConfig\":{\"savedVis\":{\"id\":\"\",\"title\":\"\",\"description\":\"\",\"type\":\"tagcloud\",\"params\":{\"scale\":\"linear\",\"orientation\":\"single\",\"minFontSize\":18,\"maxFontSize\":72,\"showLabel\":true,\"palette\":{\"name\":\"default\",\"type\":\"palette\"}},\"uiState\":{},\"data\":{\"aggs\":[{\"id\":\"1\",\"enabled\":true,\"type\":\"median\",\"params\":{\"field\":\"阶段涨幅\"},\"schema\":\"metric\"},{\"id\":\"2\",\"enabled\":true,\"type\":\"terms\",\"params\":{\"field\":\"基金简称\",\"orderBy\":\"1\",\"order\":\"desc\",\"size\":999,\"otherBucket\":false,\"otherBucketLabel\":\"其他\",\"missingBucket\":false,\"missingBucketLabel\":\"缺失\"},\"schema\":\"segment\"}],\"searchSource\":{\"index\":\"2fdb68e0-1fc9-11ee-8218-cd622917f6a3\",\"query\":{\"query\":\"\",\"language\":\"kuery\"},\"filter\":[]}}},\"enhancements\":{}}},{\"version\":\"7.17.3\",\"type\":\"visualization\",\"gridData\":{\"x\":0,\"y\":14,\"w\":48,\"h\":13,\"i\":\"eba18949-8c39-4d92-a842-f27ca58c117c\"},\"panelIndex\":\"eba18949-8c39-4d92-a842-f27ca58c117c\",\"embeddableConfig\":{\"savedVis\":{\"id\":\"\",\"title\":\"\",\"description\":\"\",\"type\":\"metric\",\"params\":{\"addTooltip\":true,\"addLegend\":false,\"type\":\"metric\",\"metric\":{\"percentageMode\":false,\"useRanges\":false,\"colorSchema\":\"Green to Red\",\"metricColorMode\":\"None\",\"colorsRange\":[{\"from\":0,\"to\":10000}],\"labels\":{\"show\":true},\"invertColors\":false,\"style\":{\"bgFill\":\"#000\",\"bgColor\":false,\"labelColor\":false,\"subText\":\"\",\"fontSize\":60}}},\"uiState\":{},\"data\":{\"aggs\":[{\"id\":\"1\",\"enabled\":true,\"type\":\"median\",\"params\":{\"field\":\"阶段涨幅\"},\"schema\":\"metric\"},{\"id\":\"2\",\"enabled\":true,\"type\":\"terms\",\"params\":{\"field\":\"报告年度\",\"orderBy\":\"_key\",\"order\":\"asc\",\"size\":999,\"otherBucket\":false,\"otherBucketLabel\":\"其他\",\"missingBucket\":false,\"missingBucketLabel\":\"缺失\"},\"schema\":\"group\"}],\"searchSource\":{\"index\":\"2fdb68e0-1fc9-11ee-8218-cd622917f6a3\",\"query\":{\"query\":\"\",\"language\":\"kuery\"},\"filter\":[]}}},\"enhancements\":{}}},{\"version\":\"7.17.3\",\"type\":\"visualization\",\"gridData\":{\"x\":0,\"y\":27,\"w\":48,\"h\":8,\"i\":\"602947d2-4806-4ced-9dc7-a362db24e9d9\"},\"panelIndex\":\"602947d2-4806-4ced-9dc7-a362db24e9d9\",\"embeddableConfig\":{\"savedVis\":{\"id\":\"\",\"title\":\"\",\"description\":\"\",\"type\":\"metric\",\"params\":{\"addTooltip\":true,\"addLegend\":false,\"type\":\"metric\",\"metric\":{\"percentageMode\":false,\"useRanges\":false,\"colorSchema\":\"Green to Red\",\"metricColorMode\":\"None\",\"colorsRange\":[{\"from\":0,\"to\":10000}],\"labels\":{\"show\":true},\"invertColors\":false,\"style\":{\"bgFill\":\"#000\",\"bgColor\":false,\"labelColor\":false,\"subText\":\"\",\"fontSize\":60}}},\"uiState\":{},\"data\":{\"aggs\":[{\"id\":\"1\",\"enabled\":true,\"type\":\"median\",\"params\":{\"field\":\"同类排名\"},\"schema\":\"metric\"},{\"id\":\"2\",\"enabled\":true,\"type\":\"terms\",\"params\":{\"field\":\"报告年度\",\"orderBy\":\"_key\",\"order\":\"asc\",\"size\":999,\"otherBucket\":false,\"otherBucketLabel\":\"其他\",\"missingBucket\":false,\"missingBucketLabel\":\"缺失\"},\"schema\":\"group\"}],\"searchSource\":{\"index\":\"2fdb68e0-1fc9-11ee-8218-cd622917f6a3\",\"query\":{\"query\":\"\",\"language\":\"kuery\"},\"filter\":[]}}},\"enhancements\":{}}},{\"version\":\"7.17.3\",\"type\":\"visualization\",\"gridData\":{\"x\":0,\"y\":35,\"w\":42,\"h\":24,\"i\":\"ee3dcbb1-8028-4364-8bd8-f7d7bd643f31\"},\"panelIndex\":\"ee3dcbb1-8028-4364-8bd8-f7d7bd643f31\",\"embeddableConfig\":{\"savedVis\":{\"id\":\"\",\"title\":\"\",\"description\":\"\",\"type\":\"table\",\"params\":{\"perPage\":12,\"showPartialRows\":true,\"showMetricsAtAllLevels\":false,\"showTotal\":true,\"showToolbar\":true,\"totalFunc\":\"avg\",\"percentageCol\":\"\",\"autoFitRowToContent\":true},\"uiState\":{},\"data\":{\"aggs\":[{\"id\":\"1\",\"enabled\":true,\"type\":\"avg\",\"params\":{\"field\":\"阶段涨幅\"},\"schema\":\"metric\"},{\"id\":\"2\",\"enabled\":true,\"type\":\"terms\",\"params\":{\"field\":\"基金简称\",\"orderBy\":\"1\",\"order\":\"desc\",\"size\":5,\"otherBucket\":false,\"otherBucketLabel\":\"其他\",\"missingBucket\":false,\"missingBucketLabel\":\"缺失\"},\"schema\":\"bucket\"},{\"id\":\"3\",\"enabled\":true,\"type\":\"terms\",\"params\":{\"field\":\"报告年度\",\"orderBy\":\"_key\",\"order\":\"desc\",\"size\":999,\"otherBucket\":false,\"otherBucketLabel\":\"其他\",\"missingBucket\":false,\"missingBucketLabel\":\"缺失\"},\"schema\":\"bucket\"},{\"id\":\"8\",\"enabled\":true,\"type\":\"avg\",\"params\":{\"field\":\"同类平均\"},\"schema\":\"metric\"},{\"id\":\"4\",\"enabled\":true,\"type\":\"avg\",\"params\":{\"field\":\"沪深300\"},\"schema\":\"metric\"},{\"id\":\"5\",\"enabled\":true,\"type\":\"terms\",\"params\":{\"field\":\"四分位排名\",\"orderBy\":\"1\",\"order\":\"desc\",\"size\":5,\"otherBucket\":false,\"otherBucketLabel\":\"其他\",\"missingBucket\":false,\"missingBucketLabel\":\"缺失\"},\"schema\":\"bucket\"},{\"id\":\"6\",\"enabled\":true,\"type\":\"avg\",\"params\":{\"field\":\"同类排名\"},\"schema\":\"metric\"},{\"id\":\"7\",\"enabled\":true,\"type\":\"avg\",\"params\":{\"field\":\"同类总数\"},\"schema\":\"metric\"}],\"searchSource\":{\"index\":\"2fdb68e0-1fc9-11ee-8218-cd622917f6a3\",\"query\":{\"query\":\"\",\"language\":\"kuery\"},\"filter\":[]}}},\"enhancements\":{}}},{\"version\":\"7.17.3\",\"type\":\"visualization\",\"gridData\":{\"x\":42,\"y\":35,\"w\":6,\"h\":24,\"i\":\"39cedc70-920f-43a5-afd2-8198fbf47d19\"},\"panelIndex\":\"39cedc70-920f-43a5-afd2-8198fbf47d19\",\"embeddableConfig\":{\"savedVis\":{\"id\":\"\",\"title\":\"\",\"description\":\"\",\"type\":\"metric\",\"params\":{\"addTooltip\":true,\"addLegend\":false,\"type\":\"metric\",\"metric\":{\"percentageMode\":false,\"useRanges\":false,\"colorSchema\":\"Green to Red\",\"metricColorMode\":\"None\",\"colorsRange\":[{\"from\":0,\"to\":10000}],\"labels\":{\"show\":true},\"invertColors\":false,\"style\":{\"bgFill\":\"#000\",\"bgColor\":false,\"labelColor\":false,\"subText\":\"\",\"fontSize\":60}}},\"uiState\":{},\"data\":{\"aggs\":[{\"id\":\"1\",\"enabled\":true,\"type\":\"count\",\"params\":{},\"schema\":\"metric\"},{\"id\":\"2\",\"enabled\":true,\"type\":\"terms\",\"params\":{\"field\":\"四分位排名\",\"orderBy\":\"1\",\"order\":\"desc\",\"size\":999,\"otherBucket\":false,\"otherBucketLabel\":\"其他\",\"missingBucket\":false,\"missingBucketLabel\":\"缺失\"},\"schema\":\"group\"}],\"searchSource\":{\"index\":\"2fdb68e0-1fc9-11ee-8218-cd622917f6a3\",\"query\":{\"query\":\"\",\"language\":\"kuery\"},\"filter\":[]}}},\"enhancements\":{}}},{\"version\":\"7.17.3\",\"type\":\"visualization\",\"gridData\":{\"x\":0,\"y\":59,\"w\":24,\"h\":15,\"i\":\"180ab982-3fd3-447c-8527-eb2e266849ca\"},\"panelIndex\":\"180ab982-3fd3-447c-8527-eb2e266849ca\",\"embeddableConfig\":{\"savedVis\":{\"id\":\"\",\"title\":\"\",\"description\":\"\",\"type\":\"heatmap\",\"params\":{\"type\":\"heatmap\",\"addTooltip\":true,\"addLegend\":true,\"enableHover\":true,\"legendPosition\":\"right\",\"times\":[],\"colorsNumber\":10,\"colorSchema\":\"Green to Red\",\"setColorRange\":false,\"colorsRange\":[],\"invertColors\":false,\"percentageMode\":false,\"valueAxes\":[{\"show\":false,\"id\":\"ValueAxis-1\",\"type\":\"value\",\"scale\":{\"type\":\"linear\",\"defaultYExtents\":true},\"labels\":{\"show\":false,\"rotate\":0,\"overwriteColor\":false,\"color\":\"black\"}}]},\"uiState\":{\"vis\":{\"defaultColors\":{\"-30 - -14\":\"rgb(0,104,55)\",\"-14 - 1\":\"rgb(30,151,79)\",\"1 - 16\":\"rgb(101,188,98)\",\"16 - 31\":\"rgb(165,217,107)\",\"31 - 46\":\"rgb(216,239,140)\",\"46 - 61\":\"rgb(254,254,189)\",\"61 - 76\":\"rgb(254,223,139)\",\"76 - 91\":\"rgb(253,173,97)\",\"91 - 106\":\"rgb(243,109,67)\",\"106 - 121\":\"rgb(214,49,41)\"}}},\"data\":{\"aggs\":[{\"id\":\"1\",\"enabled\":true,\"type\":\"median\",\"params\":{\"field\":\"阶段涨幅\"},\"schema\":\"metric\"},{\"id\":\"2\",\"enabled\":true,\"type\":\"terms\",\"params\":{\"field\":\"报告年度\",\"orderBy\":\"1\",\"order\":\"asc\",\"size\":999,\"otherBucket\":false,\"otherBucketLabel\":\"其他\",\"missingBucket\":false,\"missingBucketLabel\":\"缺失\"},\"schema\":\"segment\"},{\"id\":\"3\",\"enabled\":true,\"type\":\"terms\",\"params\":{\"field\":\"基金简称\",\"orderBy\":\"1\",\"order\":\"desc\",\"size\":999,\"otherBucket\":false,\"otherBucketLabel\":\"其他\",\"missingBucket\":false,\"missingBucketLabel\":\"缺失\"},\"schema\":\"group\"}],\"searchSource\":{\"index\":\"2fdb68e0-1fc9-11ee-8218-cd622917f6a3\",\"query\":{\"query\":\"\",\"language\":\"kuery\"},\"filter\":[]}}},\"vis\":null,\"enhancements\":{}}},{\"version\":\"7.17.3\",\"type\":\"visualization\",\"gridData\":{\"x\":24,\"y\":59,\"w\":24,\"h\":15,\"i\":\"fc5faf74-20db-42a8-a63a-6a5039fbd003\"},\"panelIndex\":\"fc5faf74-20db-42a8-a63a-6a5039fbd003\",\"embeddableConfig\":{\"savedVis\":{\"id\":\"\",\"title\":\"\",\"description\":\"\",\"type\":\"histogram\",\"params\":{\"type\":\"histogram\",\"grid\":{\"categoryLines\":true,\"valueAxis\":\"ValueAxis-1\"},\"categoryAxes\":[{\"id\":\"CategoryAxis-1\",\"type\":\"category\",\"position\":\"bottom\",\"show\":true,\"scale\":{\"type\":\"linear\"},\"labels\":{\"show\":true,\"filter\":true,\"truncate\":100},\"title\":{},\"style\":{}}],\"valueAxes\":[{\"id\":\"ValueAxis-1\",\"name\":\"LeftAxis-1\",\"type\":\"value\",\"position\":\"left\",\"show\":true,\"scale\":{\"type\":\"linear\",\"mode\":\"normal\"},\"labels\":{\"show\":true,\"rotate\":0,\"filter\":false,\"truncate\":100},\"title\":{\"text\":\"阶段涨幅中值\"},\"style\":{}}],\"seriesParams\":[{\"show\":true,\"type\":\"histogram\",\"mode\":\"normal\",\"data\":{\"label\":\"阶段涨幅中值\",\"id\":\"1\"},\"interpolate\":\"linear\",\"valueAxis\":\"ValueAxis-1\",\"drawLinesBetweenPoints\":true,\"lineWidth\":2,\"showCircles\":true,\"circlesRadius\":2}],\"radiusRatio\":0,\"addTooltip\":true,\"detailedTooltip\":true,\"palette\":{\"type\":\"palette\",\"name\":\"status\"},\"addLegend\":true,\"legendPosition\":\"right\",\"times\":[],\"addTimeMarker\":false,\"truncateLegend\":true,\"maxLegendLines\":1,\"labels\":{\"show\":true},\"thresholdLine\":{\"show\":true,\"value\":10,\"width\":1,\"style\":\"full\",\"color\":\"#E7664C\"},\"row\":true},\"uiState\":{},\"data\":{\"aggs\":[{\"id\":\"1\",\"enabled\":true,\"type\":\"median\",\"params\":{\"field\":\"阶段涨幅\"},\"schema\":\"metric\"},{\"id\":\"2\",\"enabled\":true,\"type\":\"terms\",\"params\":{\"field\":\"报告年度\",\"orderBy\":\"_key\",\"order\":\"asc\",\"size\":999,\"otherBucket\":false,\"otherBucketLabel\":\"其他\",\"missingBucket\":false,\"missingBucketLabel\":\"缺失\"},\"schema\":\"segment\"},{\"id\":\"3\",\"enabled\":false,\"type\":\"terms\",\"params\":{\"field\":\"基金简称\",\"orderBy\":\"1\",\"order\":\"desc\",\"size\":5,\"otherBucket\":false,\"otherBucketLabel\":\"其他\",\"missingBucket\":false,\"missingBucketLabel\":\"缺失\"},\"schema\":\"group\"},{\"id\":\"4\",\"enabled\":false,\"type\":\"terms\",\"params\":{\"field\":\"基金简称\",\"orderBy\":\"1\",\"order\":\"desc\",\"size\":25,\"otherBucket\":false,\"otherBucketLabel\":\"其他\",\"missingBucket\":false,\"missingBucketLabel\":\"缺失\"},\"schema\":\"split\"}],\"searchSource\":{\"index\":\"2fdb68e0-1fc9-11ee-8218-cd622917f6a3\",\"query\":{\"query\":\"\",\"language\":\"kuery\"},\"filter\":[]}}},\"enhancements\":{}}},{\"version\":\"7.17.3\",\"type\":\"visualization\",\"gridData\":{\"x\":0,\"y\":74,\"w\":24,\"h\":15,\"i\":\"db999128-3cef-4b3b-87cd-fc2f1fe3cb84\"},\"panelIndex\":\"db999128-3cef-4b3b-87cd-fc2f1fe3cb84\",\"embeddableConfig\":{\"savedVis\":{\"id\":\"\",\"title\":\"\",\"description\":\"\",\"type\":\"line\",\"params\":{\"type\":\"line\",\"grid\":{\"categoryLines\":true,\"valueAxis\":\"ValueAxis-1\"},\"categoryAxes\":[{\"id\":\"CategoryAxis-1\",\"type\":\"category\",\"position\":\"bottom\",\"show\":true,\"scale\":{\"type\":\"linear\"},\"labels\":{\"show\":true,\"filter\":true,\"truncate\":100},\"title\":{},\"style\":{}}],\"valueAxes\":[{\"id\":\"ValueAxis-1\",\"name\":\"LeftAxis-1\",\"type\":\"value\",\"position\":\"left\",\"show\":true,\"scale\":{\"type\":\"linear\",\"mode\":\"normal\"},\"labels\":{\"show\":true,\"rotate\":0,\"filter\":false,\"truncate\":100},\"title\":{\"text\":\"同类排名中值\"},\"style\":{}}],\"seriesParams\":[{\"show\":true,\"type\":\"line\",\"mode\":\"normal\",\"data\":{\"label\":\"同类排名最小值\",\"id\":\"1\"},\"valueAxis\":\"ValueAxis-1\",\"drawLinesBetweenPoints\":true,\"lineWidth\":2,\"interpolate\":\"linear\",\"showCircles\":true,\"circlesRadius\":1},{\"show\":true,\"mode\":\"normal\",\"type\":\"line\",\"drawLinesBetweenPoints\":true,\"showCircles\":true,\"circlesRadius\":1,\"interpolate\":\"linear\",\"lineWidth\":2,\"valueAxis\":\"ValueAxis-1\",\"data\":{\"id\":\"3\",\"label\":\"同类平均中值\"}},{\"show\":true,\"mode\":\"normal\",\"type\":\"line\",\"drawLinesBetweenPoints\":true,\"showCircles\":true,\"circlesRadius\":1,\"interpolate\":\"linear\",\"lineWidth\":2,\"valueAxis\":\"ValueAxis-1\",\"data\":{\"id\":\"4\",\"label\":\"沪深300中值\"}},{\"show\":true,\"mode\":\"normal\",\"type\":\"line\",\"drawLinesBetweenPoints\":true,\"showCircles\":true,\"circlesRadius\":1,\"interpolate\":\"linear\",\"lineWidth\":2,\"valueAxis\":\"ValueAxis-1\",\"data\":{\"id\":\"5\",\"label\":\"“同类总数”的和\"}},{\"show\":true,\"mode\":\"normal\",\"type\":\"line\",\"drawLinesBetweenPoints\":true,\"showCircles\":true,\"circlesRadius\":1,\"interpolate\":\"linear\",\"lineWidth\":2,\"valueAxis\":\"ValueAxis-1\",\"data\":{\"id\":\"6\",\"label\":\"阶段涨幅中值\"}}],\"addTooltip\":true,\"detailedTooltip\":false,\"palette\":{\"type\":\"palette\",\"name\":\"default\"},\"addLegend\":true,\"legendPosition\":\"right\",\"fittingFunction\":\"linear\",\"times\":[],\"addTimeMarker\":false,\"truncateLegend\":true,\"maxLegendLines\":1,\"labels\":{},\"radiusRatio\":9,\"thresholdLine\":{\"show\":false,\"value\":10,\"width\":1,\"style\":\"full\",\"color\":\"#E7664C\"}},\"uiState\":{},\"data\":{\"aggs\":[{\"id\":\"1\",\"enabled\":false,\"type\":\"min\",\"params\":{\"field\":\"同类排名\"},\"schema\":\"metric\"},{\"id\":\"2\",\"enabled\":true,\"type\":\"terms\",\"params\":{\"field\":\"报告年度\",\"orderBy\":\"_key\",\"order\":\"asc\",\"size\":999,\"otherBucket\":false,\"otherBucketLabel\":\"其他\",\"missingBucket\":false,\"missingBucketLabel\":\"缺失\"},\"schema\":\"segment\"},{\"id\":\"3\",\"enabled\":true,\"type\":\"median\",\"params\":{\"field\":\"同类平均\"},\"schema\":\"metric\"},{\"id\":\"4\",\"enabled\":true,\"type\":\"median\",\"params\":{\"field\":\"沪深300\"},\"schema\":\"metric\"},{\"id\":\"5\",\"enabled\":false,\"type\":\"sum\",\"params\":{\"field\":\"同类总数\"},\"schema\":\"metric\"},{\"id\":\"6\",\"enabled\":true,\"type\":\"median\",\"params\":{\"field\":\"阶段涨幅\"},\"schema\":\"metric\"}],\"searchSource\":{\"index\":\"2fdb68e0-1fc9-11ee-8218-cd622917f6a3\",\"query\":{\"query\":\"\",\"language\":\"kuery\"},\"filter\":[]}}},\"enhancements\":{}}},{\"version\":\"7.17.3\",\"type\":\"visualization\",\"gridData\":{\"x\":24,\"y\":74,\"w\":24,\"h\":15,\"i\":\"379f60ca-5e61-4a85-886d-3e611ac50055\"},\"panelIndex\":\"379f60ca-5e61-4a85-886d-3e611ac50055\",\"embeddableConfig\":{\"savedVis\":{\"id\":\"\",\"title\":\"\",\"description\":\"\",\"type\":\"line\",\"params\":{\"type\":\"line\",\"grid\":{\"categoryLines\":true,\"valueAxis\":\"ValueAxis-1\"},\"categoryAxes\":[{\"id\":\"CategoryAxis-1\",\"type\":\"category\",\"position\":\"bottom\",\"show\":true,\"scale\":{\"type\":\"linear\"},\"labels\":{\"show\":true,\"filter\":true,\"truncate\":100},\"title\":{},\"style\":{}}],\"valueAxes\":[{\"id\":\"ValueAxis-1\",\"name\":\"LeftAxis-1\",\"type\":\"value\",\"position\":\"left\",\"show\":true,\"scale\":{\"type\":\"linear\",\"mode\":\"normal\"},\"labels\":{\"show\":true,\"rotate\":0,\"filter\":false,\"truncate\":100},\"title\":{\"text\":\"同类排名中值\"},\"style\":{}}],\"seriesParams\":[{\"show\":true,\"type\":\"line\",\"mode\":\"normal\",\"data\":{\"label\":\"同类排名最小值\",\"id\":\"1\"},\"valueAxis\":\"ValueAxis-1\",\"drawLinesBetweenPoints\":true,\"lineWidth\":2,\"interpolate\":\"linear\",\"showCircles\":true,\"circlesRadius\":1},{\"show\":true,\"mode\":\"normal\",\"type\":\"line\",\"drawLinesBetweenPoints\":true,\"showCircles\":true,\"circlesRadius\":1,\"interpolate\":\"linear\",\"lineWidth\":2,\"valueAxis\":\"ValueAxis-1\",\"data\":{\"id\":\"3\",\"label\":\"同类平均中值\"}},{\"show\":true,\"mode\":\"normal\",\"type\":\"line\",\"drawLinesBetweenPoints\":true,\"showCircles\":true,\"circlesRadius\":1,\"interpolate\":\"linear\",\"lineWidth\":2,\"valueAxis\":\"ValueAxis-1\",\"data\":{\"id\":\"4\",\"label\":\"沪深300中值\"}},{\"show\":true,\"mode\":\"normal\",\"type\":\"line\",\"drawLinesBetweenPoints\":true,\"showCircles\":true,\"circlesRadius\":1,\"interpolate\":\"linear\",\"lineWidth\":2,\"valueAxis\":\"ValueAxis-1\",\"data\":{\"id\":\"5\",\"label\":\"同类总数中值\"}}],\"addTooltip\":true,\"detailedTooltip\":false,\"palette\":{\"type\":\"palette\",\"name\":\"default\"},\"addLegend\":true,\"legendPosition\":\"right\",\"fittingFunction\":\"linear\",\"times\":[],\"addTimeMarker\":false,\"truncateLegend\":true,\"maxLegendLines\":1,\"labels\":{},\"radiusRatio\":9,\"thresholdLine\":{\"show\":false,\"value\":10,\"width\":1,\"style\":\"full\",\"color\":\"#E7664C\"}},\"uiState\":{},\"data\":{\"aggs\":[{\"id\":\"1\",\"enabled\":true,\"type\":\"min\",\"params\":{\"field\":\"同类排名\"},\"schema\":\"metric\"},{\"id\":\"2\",\"enabled\":true,\"type\":\"terms\",\"params\":{\"field\":\"报告年度\",\"orderBy\":\"_key\",\"order\":\"asc\",\"size\":999,\"otherBucket\":false,\"otherBucketLabel\":\"其他\",\"missingBucket\":false,\"missingBucketLabel\":\"缺失\"},\"schema\":\"segment\"},{\"id\":\"3\",\"enabled\":false,\"type\":\"median\",\"params\":{\"field\":\"同类平均\"},\"schema\":\"metric\"},{\"id\":\"4\",\"enabled\":false,\"type\":\"median\",\"params\":{\"field\":\"沪深300\"},\"schema\":\"metric\"},{\"id\":\"5\",\"enabled\":true,\"type\":\"median\",\"params\":{\"field\":\"同类总数\"},\"schema\":\"metric\"}],\"searchSource\":{\"index\":\"2fdb68e0-1fc9-11ee-8218-cd622917f6a3\",\"query\":{\"query\":\"\",\"language\":\"kuery\"},\"filter\":[]}}},\"enhancements\":{}}}]","timeRestore":false,"title":"年度涨幅对比","version":1},"coreMigrationVersion":"7.17.3","id":"29488f50-1fef-11ee-8218-cd622917f6a3","migrationVersion":{"dashboard":"7.17.3"},"references":[{"id":"2fdb68e0-1fc9-11ee-8218-cd622917f6a3","name":"0ac89416-be34-46aa-82de-84b33ec0456e:kibanaSavedObjectMeta.searchSourceJSON.index","type":"index-pattern"},{"id":"2fdb68e0-1fc9-11ee-8218-cd622917f6a3","name":"eba18949-8c39-4d92-a842-f27ca58c117c:kibanaSavedObjectMeta.searchSourceJSON.index","type":"index-pattern"},{"id":"2fdb68e0-1fc9-11ee-8218-cd622917f6a3","name":"602947d2-4806-4ced-9dc7-a362db24e9d9:kibanaSavedObjectMeta.searchSourceJSON.index","type":"index-pattern"},{"id":"2fdb68e0-1fc9-11ee-8218-cd622917f6a3","name":"ee3dcbb1-8028-4364-8bd8-f7d7bd643f31:kibanaSavedObjectMeta.searchSourceJSON.index","type":"index-pattern"},{"id":"2fdb68e0-1fc9-11ee-8218-cd622917f6a3","name":"39cedc70-920f-43a5-afd2-8198fbf47d19:kibanaSavedObjectMeta.searchSourceJSON.index","type":"index-pattern"},{"id":"2fdb68e0-1fc9-11ee-8218-cd622917f6a3","name":"180ab982-3fd3-447c-8527-eb2e266849ca:kibanaSavedObjectMeta.searchSourceJSON.index","type":"index-pattern"},{"id":"2fdb68e0-1fc9-11ee-8218-cd622917f6a3","name":"fc5faf74-20db-42a8-a63a-6a5039fbd003:kibanaSavedObjectMeta.searchSourceJSON.index","type":"index-pattern"},{"id":"2fdb68e0-1fc9-11ee-8218-cd622917f6a3","name":"db999128-3cef-4b3b-87cd-fc2f1fe3cb84:kibanaSavedObjectMeta.searchSourceJSON.index","type":"index-pattern"},{"id":"2fdb68e0-1fc9-11ee-8218-cd622917f6a3","name":"379f60ca-5e61-4a85-886d-3e611ac50055:kibanaSavedObjectMeta.searchSourceJSON.index","type":"index-pattern"},{"id":"55cf1c20-e1a6-11ec-a7ea-b54607c2d089","name":"tag-55cf1c20-e1a6-11ec-a7ea-b54607c2d089","type":"tag"}],"sort":[1689123319400,1265],"type":"dashboard","updated_at":"2023-07-12T00:55:19.400Z","version":"WzE2NzUyLDE0XQ=="}
{"attributes":{"description":"","hits":0,"kibanaSavedObjectMeta":{"searchSourceJSON":"{\"query\":{\"query\":\"\",\"language\":\"kuery\"},\"filter\":[]}"},"optionsJSON":"{\"useMargins\":true,\"syncColors\":false,\"hidePanelTitles\":false}","panelsJSON":"[{\"version\":\"7.17.3\",\"type\":\"visualization\",\"gridData\":{\"x\":0,\"y\":0,\"w\":48,\"h\":15,\"i\":\"c022b3d1-bb15-4441-9e41-4c821177555f\"},\"panelIndex\":\"c022b3d1-bb15-4441-9e41-4c821177555f\",\"embeddableConfig\":{\"savedVis\":{\"id\":\"\",\"title\":\"\",\"description\":\"\",\"type\":\"tagcloud\",\"params\":{\"scale\":\"linear\",\"orientation\":\"single\",\"minFontSize\":18,\"maxFontSize\":72,\"showLabel\":true,\"palette\":{\"name\":\"default\",\"type\":\"palette\"}},\"uiState\":{},\"data\":{\"aggs\":[{\"id\":\"1\",\"enabled\":true,\"type\":\"median\",\"params\":{\"field\":\"换手率\"},\"schema\":\"metric\"},{\"id\":\"2\",\"enabled\":true,\"type\":\"terms\",\"params\":{\"field\":\"基金简称\",\"orderBy\":\"1\",\"order\":\"desc\",\"size\":25,\"otherBucket\":false,\"otherBucketLabel\":\"其他\",\"missingBucket\":false,\"missingBucketLabel\":\"缺失\"},\"schema\":\"segment\"}],\"searchSource\":{\"index\":\"ceff7a60-1fe7-11ee-8218-cd622917f6a3\",\"query\":{\"query\":\"\",\"language\":\"kuery\"},\"filter\":[]}}},\"enhancements\":{}}},{\"version\":\"7.17.3\",\"type\":\"lens\",\"gridData\":{\"x\":0,\"y\":29,\"w\":24,\"h\":17,\"i\":\"491a1126-b973-4cee-abe9-c900cf33300c\"},\"panelIndex\":\"491a1126-b973-4cee-abe9-c900cf33300c\",\"embeddableConfig\":{\"attributes\":{\"title\":\"\",\"visualizationType\":\"lnsDatatable\",\"type\":\"lens\",\"references\":[{\"type\":\"index-pattern\",\"id\":\"ceff7a60-1fe7-11ee-8218-cd622917f6a3\",\"name\":\"indexpattern-datasource-current-indexpattern\"},{\"type\":\"index-pattern\",\"id\":\"6b32f670-1b36-11ee-92df-9d60b72cab31\",\"name\":\"indexpattern-datasource-layer-bc952f3b-4943-46a9-a997-bef7945fc650\"}],\"state\":{\"visualization\":{\"columns\":[{\"isTransposed\":false,\"columnId\":\"a48a4991-d6d0-40a1-9935-617d76a13692\"},{\"isTransposed\":false,\"columnId\":\"53a24669-daf1-48c9-bb84-63dd54adde85\",\"colorMode\":\"none\"},{\"isTransposed\":false,\"columnId\":\"aef580d2-0632-4142-8d7f-5075f76656e5\"},{\"isTransposed\":false,\"columnId\":\"a6a612cb-f128-4e40-b2a4-c31ed7e0d11e\",\"colorMode\":\"cell\",\"palette\":{\"type\":\"palette\",\"name\":\"status\",\"params\":{\"stops\":[{\"color\":\"#209280\",\"stop\":0},{\"color\":\"#54b399\",\"stop\":20},{\"color\":\"#d6bf57\",\"stop\":40},{\"color\":\"#e7664c\",\"stop\":60},{\"color\":\"#cc5642\",\"stop\":80}],\"name\":\"status\",\"reverse\":false,\"rangeMin\":0,\"rangeMax\":80}}},{\"isTransposed\":false,\"columnId\":\"9e339578-73e2-4073-95cf-995da45cf78b\"},{\"isTransposed\":false,\"columnId\":\"0e96ce36-504d-4c0a-88e4-8e81ca348842\"}],\"layerId\":\"bc952f3b-4943-46a9-a997-bef7945fc650\",\"layerType\":\"data\"},\"query\":{\"query\":\"\",\"language\":\"kuery\"},\"filters\":[],\"datasourceStates\":{\"indexpattern\":{\"layers\":{\"bc952f3b-4943-46a9-a997-bef7945fc650\":{\"columns\":{\"a48a4991-d6d0-40a1-9935-617d76a13692\":{\"label\":\"基金简称 排名最前值\",\"dataType\":\"string\",\"operationType\":\"terms\",\"scale\":\"ordinal\",\"sourceField\":\"基金简称\",\"isBucketed\":true,\"params\":{\"size\":999,\"orderBy\":{\"type\":\"column\",\"columnId\":\"a6a612cb-f128-4e40-b2a4-c31ed7e0d11e\"},\"orderDirection\":\"asc\",\"otherBucket\":true,\"missingBucket\":false}},\"53a24669-daf1-48c9-bb84-63dd54adde85\":{\"label\":\"单位净值 的最大值\",\"dataType\":\"number\",\"operationType\":\"max\",\"sourceField\":\"单位净值\",\"isBucketed\":false,\"scale\":\"ratio\",\"params\":{\"format\":{\"id\":\"number\",\"params\":{\"decimals\":4}}}},\"aef580d2-0632-4142-8d7f-5075f76656e5\":{\"label\":\"样本数量 之和\",\"dataType\":\"number\",\"operationType\":\"sum\",\"sourceField\":\"样本数量\",\"isBucketed\":false,\"scale\":\"ratio\"},\"a6a612cb-f128-4e40-b2a4-c31ed7e0d11e\":{\"label\":\"标准差 的平均值\",\"dataType\":\"number\",\"operationType\":\"average\",\"sourceField\":\"标准差\",\"isBucketed\":false,\"scale\":\"ratio\"},\"9e339578-73e2-4073-95cf-995da45cf78b\":{\"label\":\"最大值 的最大值\",\"dataType\":\"number\",\"operationType\":\"max\",\"sourceField\":\"最大值\",\"isBucketed\":false,\"scale\":\"ratio\"},\"0e96ce36-504d-4c0a-88e4-8e81ca348842\":{\"label\":\"最小值 的最小值\",\"dataType\":\"number\",\"operationType\":\"min\",\"sourceField\":\"最小值\",\"isBucketed\":false,\"scale\":\"ratio\"}},\"columnOrder\":[\"a48a4991-d6d0-40a1-9935-617d76a13692\",\"aef580d2-0632-4142-8d7f-5075f76656e5\",\"9e339578-73e2-4073-95cf-995da45cf78b\",\"0e96ce36-504d-4c0a-88e4-8e81ca348842\",\"53a24669-daf1-48c9-bb84-63dd54adde85\",\"a6a612cb-f128-4e40-b2a4-c31ed7e0d11e\"],\"incompleteColumns\":{}}}}}}},\"hidePanelTitles\":false,\"enhancements\":{}},\"title\":\"换手率\"},{\"version\":\"7.17.3\",\"type\":\"visualization\",\"gridData\":{\"x\":24,\"y\":29,\"w\":24,\"h\":17,\"i\":\"e83f0c6c-5704-4f85-8a24-84da62fe2afc\"},\"panelIndex\":\"e83f0c6c-5704-4f85-8a24-84da62fe2afc\",\"embeddableConfig\":{\"savedVis\":{\"id\":\"\",\"title\":\"\",\"description\":\"\",\"type\":\"histogram\",\"params\":{\"type\":\"histogram\",\"grid\":{\"categoryLines\":false},\"categoryAxes\":[{\"id\":\"CategoryAxis-1\",\"type\":\"category\",\"position\":\"bottom\",\"show\":true,\"scale\":{\"type\":\"linear\"},\"labels\":{\"show\":true,\"filter\":true,\"truncate\":100},\"title\":{},\"style\":{}}],\"valueAxes\":[{\"id\":\"ValueAxis-1\",\"name\":\"LeftAxis-1\",\"type\":\"value\",\"position\":\"left\",\"show\":true,\"scale\":{\"type\":\"linear\",\"mode\":\"normal\"},\"labels\":{\"show\":true,\"rotate\":0,\"filter\":false,\"truncate\":100},\"title\":{\"text\":\"换手率中值\"},\"style\":{}}],\"seriesParams\":[{\"show\":true,\"type\":\"histogram\",\"mode\":\"stacked\",\"data\":{\"label\":\"换手率中值\",\"id\":\"1\"},\"interpolate\":\"linear\",\"valueAxis\":\"ValueAxis-1\",\"drawLinesBetweenPoints\":true,\"lineWidth\":2,\"showCircles\":true,\"circlesRadius\":1}],\"radiusRatio\":0,\"addTooltip\":true,\"detailedTooltip\":true,\"palette\":{\"type\":\"palette\",\"name\":\"default\"},\"addLegend\":true,\"legendPosition\":\"right\",\"times\":[],\"addTimeMarker\":false,\"truncateLegend\":true,\"maxLegendLines\":1,\"labels\":{\"show\":false},\"thresholdLine\":{\"show\":false,\"value\":10,\"width\":1,\"style\":\"full\",\"color\":\"#E7664C\"},\"row\":true},\"uiState\":{},\"data\":{\"aggs\":[{\"id\":\"1\",\"enabled\":true,\"type\":\"median\",\"params\":{\"field\":\"换手率\"},\"schema\":\"metric\"},{\"id\":\"2\",\"enabled\":true,\"type\":\"terms\",\"params\":{\"field\":\"报告日期\",\"orderBy\":\"_key\",\"order\":\"asc\",\"size\":999,\"otherBucket\":false,\"otherBucketLabel\":\"其他\",\"missingBucket\":false,\"missingBucketLabel\":\"缺失\"},\"schema\":\"segment\"},{\"id\":\"3\",\"enabled\":true,\"type\":\"terms\",\"params\":{\"field\":\"基金简称\",\"orderBy\":\"1\",\"order\":\"desc\",\"size\":25,\"otherBucket\":false,\"otherBucketLabel\":\"其他\",\"missingBucket\":false,\"missingBucketLabel\":\"缺失\"},\"schema\":\"split\"}],\"searchSource\":{\"index\":\"ceff7a60-1fe7-11ee-8218-cd622917f6a3\",\"query\":{\"query\":\"\",\"language\":\"kuery\"},\"filter\":[]}}},\"enhancements\":{}}},{\"version\":\"7.17.3\",\"type\":\"visualization\",\"gridData\":{\"x\":0,\"y\":46,\"w\":24,\"h\":15,\"i\":\"a79cbec2-f7d5-47be-97ea-dd8fb41c1a62\"},\"panelIndex\":\"a79cbec2-f7d5-47be-97ea-dd8fb41c1a62\",\"embeddableConfig\":{\"savedVis\":{\"id\":\"\",\"title\":\"\",\"description\":\"\",\"type\":\"line\",\"params\":{\"type\":\"line\",\"grid\":{\"categoryLines\":true},\"categoryAxes\":[{\"id\":\"CategoryAxis-1\",\"type\":\"category\",\"position\":\"bottom\",\"show\":true,\"scale\":{\"type\":\"linear\"},\"labels\":{\"show\":true,\"filter\":true,\"truncate\":100},\"title\":{},\"style\":{}}],\"valueAxes\":[{\"id\":\"ValueAxis-1\",\"name\":\"LeftAxis-1\",\"type\":\"value\",\"position\":\"left\",\"show\":true,\"scale\":{\"type\":\"linear\",\"mode\":\"normal\"},\"labels\":{\"show\":true,\"rotate\":0,\"filter\":false,\"truncate\":100},\"title\":{\"text\":\"换手率平均值\"},\"style\":{}}],\"seriesParams\":[{\"show\":true,\"type\":\"line\",\"mode\":\"normal\",\"data\":{\"label\":\"换手率平均值\",\"id\":\"1\"},\"valueAxis\":\"ValueAxis-1\",\"drawLinesBetweenPoints\":true,\"lineWidth\":2,\"interpolate\":\"linear\",\"showCircles\":true,\"circlesRadius\":1}],\"addTooltip\":true,\"detailedTooltip\":true,\"palette\":{\"type\":\"palette\",\"name\":\"default\"},\"addLegend\":true,\"legendPosition\":\"right\",\"fittingFunction\":\"linear\",\"times\":[],\"addTimeMarker\":false,\"truncateLegend\":true,\"maxLegendLines\":1,\"labels\":{},\"radiusRatio\":9,\"thresholdLine\":{\"show\":true,\"value\":100,\"width\":1,\"style\":\"full\",\"color\":\"#E7664C\"}},\"uiState\":{},\"data\":{\"aggs\":[{\"id\":\"1\",\"enabled\":true,\"type\":\"avg\",\"params\":{\"field\":\"换手率\"},\"schema\":\"metric\"},{\"id\":\"2\",\"enabled\":true,\"type\":\"terms\",\"params\":{\"field\":\"报告日期\",\"orderBy\":\"_key\",\"order\":\"asc\",\"size\":999,\"otherBucket\":false,\"otherBucketLabel\":\"其他\",\"missingBucket\":false,\"missingBucketLabel\":\"缺失\"},\"schema\":\"segment\"},{\"id\":\"3\",\"enabled\":true,\"type\":\"terms\",\"params\":{\"field\":\"基金简称\",\"orderBy\":\"1\",\"order\":\"desc\",\"size\":999,\"otherBucket\":false,\"otherBucketLabel\":\"其他\",\"missingBucket\":false,\"missingBucketLabel\":\"缺失\"},\"schema\":\"group\"}],\"searchSource\":{\"index\":\"ceff7a60-1fe7-11ee-8218-cd622917f6a3\",\"query\":{\"query\":\"\",\"language\":\"kuery\"},\"filter\":[]}}},\"enhancements\":{}}},{\"version\":\"7.17.3\",\"type\":\"visualization\",\"gridData\":{\"x\":24,\"y\":46,\"w\":24,\"h\":15,\"i\":\"c18d59c1-5396-4c11-8aa1-dfd1875783b8\"},\"panelIndex\":\"c18d59c1-5396-4c11-8aa1-dfd1875783b8\",\"embeddableConfig\":{\"savedVis\":{\"id\":\"\",\"title\":\"\",\"description\":\"\",\"type\":\"heatmap\",\"params\":{\"type\":\"heatmap\",\"addTooltip\":true,\"addLegend\":true,\"enableHover\":false,\"legendPosition\":\"right\",\"times\":[],\"colorsNumber\":10,\"colorSchema\":\"Green to Red\",\"setColorRange\":false,\"colorsRange\":[{\"from\":0,\"to\":100}],\"invertColors\":false,\"percentageMode\":false,\"valueAxes\":[{\"show\":false,\"id\":\"ValueAxis-1\",\"type\":\"value\",\"scale\":{\"type\":\"linear\",\"defaultYExtents\":true},\"labels\":{\"show\":false,\"rotate\":0,\"overwriteColor\":false,\"color\":\"black\"}}]},\"uiState\":{\"vis\":{\"defaultColors\":{\"7 - 158\":\"rgb(0,104,55)\",\"158 - 308\":\"rgb(30,151,79)\",\"308 - 458\":\"rgb(101,188,98)\",\"458 - 608\":\"rgb(165,217,107)\",\"608 - 758\":\"rgb(216,239,140)\",\"758 - 909\":\"rgb(254,254,189)\",\"909 - 1,059\":\"rgb(254,223,139)\",\"1,059 - 1,209\":\"rgb(253,173,97)\",\"1,209 - 1,359\":\"rgb(243,109,67)\",\"1,359 - 1,509\":\"rgb(214,49,41)\"}}},\"data\":{\"aggs\":[{\"id\":\"1\",\"enabled\":true,\"type\":\"median\",\"params\":{\"field\":\"换手率\"},\"schema\":\"metric\"},{\"id\":\"2\",\"enabled\":true,\"type\":\"terms\",\"params\":{\"field\":\"报告日期\",\"orderBy\":\"_key\",\"order\":\"asc\",\"size\":999,\"otherBucket\":false,\"otherBucketLabel\":\"其他\",\"missingBucket\":false,\"missingBucketLabel\":\"缺失\"},\"schema\":\"segment\"},{\"id\":\"3\",\"enabled\":true,\"type\":\"terms\",\"params\":{\"field\":\"基金简称\",\"orderBy\":\"1\",\"order\":\"asc\",\"size\":25,\"otherBucket\":false,\"otherBucketLabel\":\"其他\",\"missingBucket\":false,\"missingBucketLabel\":\"缺失\"},\"schema\":\"group\"}],\"searchSource\":{\"index\":\"ceff7a60-1fe7-11ee-8218-cd622917f6a3\",\"query\":{\"query\":\"\",\"language\":\"kuery\"},\"filter\":[]}}},\"vis\":null,\"enhancements\":{}}},{\"version\":\"7.17.3\",\"type\":\"visualization\",\"gridData\":{\"x\":0,\"y\":15,\"w\":48,\"h\":14,\"i\":\"f64bc6c1-2764-423f-bb9d-22f59655c36b\"},\"panelIndex\":\"f64bc6c1-2764-423f-bb9d-22f59655c36b\",\"embeddableConfig\":{\"savedVis\":{\"id\":\"\",\"title\":\"\",\"description\":\"\",\"type\":\"metric\",\"params\":{\"addTooltip\":true,\"addLegend\":false,\"type\":\"metric\",\"metric\":{\"percentageMode\":false,\"useRanges\":false,\"colorSchema\":\"Green to Red\",\"metricColorMode\":\"None\",\"colorsRange\":[{\"from\":0,\"to\":10000}],\"labels\":{\"show\":true},\"invertColors\":false,\"style\":{\"bgFill\":\"#000\",\"bgColor\":false,\"labelColor\":false,\"subText\":\"\",\"fontSize\":60}}},\"uiState\":{},\"data\":{\"aggs\":[{\"id\":\"1\",\"enabled\":true,\"type\":\"median\",\"params\":{\"field\":\"换手率\"},\"schema\":\"metric\"},{\"id\":\"2\",\"enabled\":true,\"type\":\"terms\",\"params\":{\"field\":\"基金简称\",\"orderBy\":\"1\",\"order\":\"desc\",\"size\":25,\"otherBucket\":false,\"otherBucketLabel\":\"其他\",\"missingBucket\":false,\"missingBucketLabel\":\"缺失\"},\"schema\":\"group\"}],\"searchSource\":{\"index\":\"ceff7a60-1fe7-11ee-8218-cd622917f6a3\",\"query\":{\"query\":\"\",\"language\":\"kuery\"},\"filter\":[]}}},\"enhancements\":{}}}]","timeRestore":false,"title":"基金_换手率","version":1},"coreMigrationVersion":"7.17.3","id":"a199c620-1fe7-11ee-8218-cd622917f6a3","migrationVersion":{"dashboard":"7.17.3"},"references":[{"id":"ceff7a60-1fe7-11ee-8218-cd622917f6a3","name":"c022b3d1-bb15-4441-9e41-4c821177555f:kibanaSavedObjectMeta.searchSourceJSON.index","type":"index-pattern"},{"id":"ceff7a60-1fe7-11ee-8218-cd622917f6a3","name":"491a1126-b973-4cee-abe9-c900cf33300c:indexpattern-datasource-current-indexpattern","type":"index-pattern"},{"id":"6b32f670-1b36-11ee-92df-9d60b72cab31","name":"491a1126-b973-4cee-abe9-c900cf33300c:indexpattern-datasource-layer-bc952f3b-4943-46a9-a997-bef7945fc650","type":"index-pattern"},{"id":"ceff7a60-1fe7-11ee-8218-cd622917f6a3","name":"e83f0c6c-5704-4f85-8a24-84da62fe2afc:kibanaSavedObjectMeta.searchSourceJSON.index","type":"index-pattern"},{"id":"ceff7a60-1fe7-11ee-8218-cd622917f6a3","name":"a79cbec2-f7d5-47be-97ea-dd8fb41c1a62:kibanaSavedObjectMeta.searchSourceJSON.index","type":"index-pattern"},{"id":"ceff7a60-1fe7-11ee-8218-cd622917f6a3","name":"c18d59c1-5396-4c11-8aa1-dfd1875783b8:kibanaSavedObjectMeta.searchSourceJSON.index","type":"index-pattern"},{"id":"ceff7a60-1fe7-11ee-8218-cd622917f6a3","name":"f64bc6c1-2764-423f-bb9d-22f59655c36b:kibanaSavedObjectMeta.searchSourceJSON.index","type":"index-pattern"},{"id":"55cf1c20-e1a6-11ec-a7ea-b54607c2d089","name":"tag-55cf1c20-e1a6-11ec-a7ea-b54607c2d089","type":"tag"}],"sort":[1689081708387,1197],"type":"dashboard","updated_at":"2023-07-11T13:21:48.387Z","version":"WzE2NjY4LDE0XQ=="}
{"excludedObjects":[],"excludedObjectsCount":0,"exportedCount":4,"missingRefCount":0,"missingReferences":[]}